<?xml version="1.0" encoding="utf-8"?>
<!-- Generator: Adobe Illustrator 25.0.1, SVG Export Plug-In . SVG Version: 6.00 Build 0)  -->
<svg version="1.1" id="Layer_1" xmlns="http://www.w3.org/2000/svg" xmlns:xlink="http://www.w3.org/1999/xlink" x="0px" y="0px"
	 width="864px" height="864px" viewBox="0 0 864 864" enable-background="new 0 0 864 864" xml:space="preserve">
<metadata><?xpacket begin="﻿" id="W5M0MpCehiHzreSzNTczkc9d"?>
<x:xmpmeta xmlns:x="adobe:ns:meta/" x:xmptk="Adobe XMP Core 6.0-c002 79.164519, 2020/08/25-17:54:00        ">
   <rdf:RDF xmlns:rdf="http://www.w3.org/1999/02/22-rdf-syntax-ns#">
      <rdf:Description rdf:about=""
            xmlns:dc="http://purl.org/dc/elements/1.1/"
            xmlns:xmp="http://ns.adobe.com/xap/1.0/"
            xmlns:xmpGImg="http://ns.adobe.com/xap/1.0/g/img/"
            xmlns:xmpMM="http://ns.adobe.com/xap/1.0/mm/"
            xmlns:stRef="http://ns.adobe.com/xap/1.0/sType/ResourceRef#"
            xmlns:stEvt="http://ns.adobe.com/xap/1.0/sType/ResourceEvent#"
            xmlns:illustrator="http://ns.adobe.com/illustrator/1.0/"
            xmlns:pdf="http://ns.adobe.com/pdf/1.3/"
            xmlns:xmpTPg="http://ns.adobe.com/xap/1.0/t/pg/"
            xmlns:stDim="http://ns.adobe.com/xap/1.0/sType/Dimensions#"
            xmlns:xmpG="http://ns.adobe.com/xap/1.0/g/">
         <dc:format>image/svg+xml</dc:format>
         <dc:title>
            <rdf:Alt>
               <rdf:li xml:lang="x-default">Print</rdf:li>
            </rdf:Alt>
         </dc:title>
         <dc:description>
            <rdf:Alt>
               <rdf:li xml:lang="x-default">Files are subject to copyright to Free SVG Designs.</rdf:li>
            </rdf:Alt>
         </dc:description>
         <dc:rights>
            <rdf:Alt>
               <rdf:li xml:lang="x-default">Files are subject to copyright to Free SVG Designs.</rdf:li>
            </rdf:Alt>
         </dc:rights>
         <xmp:MetadataDate>2020-12-10T19:49:52+11:00</xmp:MetadataDate>
         <xmp:ModifyDate>2020-12-10T19:49:52+11:00</xmp:ModifyDate>
         <xmp:CreateDate>2020-12-10T19:49:52+11:00</xmp:CreateDate>
         <xmp:CreatorTool>Adobe Illustrator 25.0 (Windows)</xmp:CreatorTool>
         <xmp:Thumbnails>
            <rdf:Alt>
               <rdf:li rdf:parseType="Resource">
                  <xmpGImg:width>256</xmpGImg:width>
                  <xmpGImg:height>128</xmpGImg:height>
                  <xmpGImg:format>JPEG</xmpGImg:format>
                  <xmpGImg:image>/9j/4AAQSkZJRgABAgEASABIAAD/7QAsUGhvdG9zaG9wIDMuMAA4QklNA+0AAAAAABAASAAAAAEA&#xA;AQBIAAAAAQAB/+4ADkFkb2JlAGTAAAAAAf/bAIQABgQEBAUEBgUFBgkGBQYJCwgGBggLDAoKCwoK&#xA;DBAMDAwMDAwQDA4PEA8ODBMTFBQTExwbGxscHx8fHx8fHx8fHwEHBwcNDA0YEBAYGhURFRofHx8f&#xA;Hx8fHx8fHx8fHx8fHx8fHx8fHx8fHx8fHx8fHx8fHx8fHx8fHx8fHx8fHx8f/8AAEQgAgAEAAwER&#xA;AAIRAQMRAf/EAaIAAAAHAQEBAQEAAAAAAAAAAAQFAwIGAQAHCAkKCwEAAgIDAQEBAQEAAAAAAAAA&#xA;AQACAwQFBgcICQoLEAACAQMDAgQCBgcDBAIGAnMBAgMRBAAFIRIxQVEGE2EicYEUMpGhBxWxQiPB&#xA;UtHhMxZi8CRygvElQzRTkqKyY3PCNUQnk6OzNhdUZHTD0uIIJoMJChgZhJRFRqS0VtNVKBry4/PE&#xA;1OT0ZXWFlaW1xdXl9WZ2hpamtsbW5vY3R1dnd4eXp7fH1+f3OEhYaHiImKi4yNjo+Ck5SVlpeYmZ&#xA;qbnJ2en5KjpKWmp6ipqqusra6voRAAICAQIDBQUEBQYECAMDbQEAAhEDBCESMUEFURNhIgZxgZEy&#xA;obHwFMHR4SNCFVJicvEzJDRDghaSUyWiY7LCB3PSNeJEgxdUkwgJChgZJjZFGidkdFU38qOzwygp&#xA;0+PzhJSktMTU5PRldYWVpbXF1eX1RlZmdoaWprbG1ub2R1dnd4eXp7fH1+f3OEhYaHiImKi4yNjo&#xA;+DlJWWl5iZmpucnZ6fkqOkpaanqKmqq6ytrq+v/aAAwDAQACEQMRAD8A9U4qxPz7+aXkzyNaiXXb&#xA;0LcyAtb6fCPUuZf9WMEUG32mIX3xV86+cf8AnLXzhqDyQeWbOHRrU1CXEoFzdfP4h6S/Lg3zwK8p&#xA;1r8xPPetyM+qa/fXIbrG08ixj5RqVQfQMVY9iqZaT5n8yaOytpOq3enlen1aeSLvX9hh3OKvVvJP&#xA;/OU3n7RZY4de9PX9PBAf1QIrpV/yJkADf7NTXxGKvpzyD+ZXlPz1pv13QrrlJGB9asZQEuICe0iV&#xA;O3gykqfHCrKcVdirsVeRfnD/AM5CaL5HeTR9KjTVPMoX44ST9Xtqiqmdl3Ld/TXenUrtVV8v+afz&#xA;d/MbzNM76prlyIWrSzt3NvbgH9n04uKtTxap98CsQZmdizEszGrMdySe5xVknlv8yvPnluZJNH1y&#xA;7t1TpbmQyQHevxQycoz/AMDir6l/JP8A5yAtPO8g0PW447HzKqlovTqILpVFWMYYkrIBuUr03HcA&#xA;q9jxV2KuxViPn381PJfka3D67fBbqRS0GnwD1LmQDwQH4Qf5nIX3xV87ecf+ctPOWoyPD5ZtIdFt&#xA;Nwk8gFzdEdK1cektfDgaeOBXlOtfmD551tmOq69f3auamJ7iT0vojBCD6BirH8VTPSfM/mTR2U6T&#xA;qt5YFTVfq08kQ616Iw74q9X8kf8AOU/nvRpUh8wBPMGn1oxkCw3Sj/JlReLU8HUk+IxV9O+Q/wAx&#xA;/KnnjTDfaDd+o0dPrVnJRLiBj0EkdT17MKqexwqybFXYq7FXxt+fv5weYdZ85ajoukapNb+XdOc2&#xA;qQ2rtEs8iCkzylCDIPUqq1+GgBHXAryCC8u7ecXFvPJDcA1E0bMr1615Ag4q+jv+ca/zm8z6l5jj&#xA;8neYbx9ShuoZG026nPOdJIEMjRtIfidWjVj8VSKeGKvU/wA8PzYh/L/y0GteMuv6jyi0yFt1TiBz&#xA;ncfyx8hQd2oOlcKviTVtX1PV9Rn1LVLmS8v7li89xKxZ2Y+57DoB0GBUJir238vf+cWvNXmKyh1P&#xA;XroaDYzgPDA0Zlu3Q71aOqLHUdOR5eK4qzTXP+cPNK/RznQ9euBqKISiXkaNDI4GykxhGjBPf4qe&#xA;BxV8z6lpt9pmoXOnahC1te2kjQ3MD/aSRDRlP04qhsVTbyt5p1vyvrltrWjXDW19bMCpFeLrX4o5&#xA;FBHJG6MMVfeX5deedO87+UrLX7KiGYend21amG4SnqRn5E1U91IPfCrJcVeWfn7+bS+RfLYtdOkH&#xA;+JNVVksRsTDGNnuGH+T0SvVvYHFXxRPPNPNJPPI0s8rF5ZXJZ2djVmZjuST1OBVmKs3/AC3/ACf8&#xA;3/mCL2TRBBDbWNBNdXjvHEZG3ESFEkLPTfpQdyKiqrHPM3ljW/LOtXGja1bNa39saPGdwQd1dGGz&#xA;Kw3BGKoTTNSvtM1G21GwmaC9s5Unt5l6pJGQykfSMVfoH+X3m+184eTtM8w24C/XYgZ4h/uudCUm&#xA;T/Yupp4jfCrIcVeafnl+bcX5f+XkFnwl8w6lyTToW+JY1X7c8g/lSoCju3sDir4m1PVNR1XUJ9R1&#xA;K4ku765cyXFxKxZ3Y9yTgVDAEmg3J6DFXuH5f/8AOK/mrXrSLUfMN0NBs5QGjtjH6t2ynoWQlFir&#xA;/lGviuKsv17/AJw90waZI+g67cHUkQmOK8SMxSOB9nlHwMdfH4qYq+Z9QsLzT764sL2FoLy1kaG4&#xA;hfZkkQ8WU/IjFVDFU48pebNc8qa7ba3otwbe9tz80kQ/ajkX9pG7j6etMVfef5fedtN86+VLLzBY&#xA;fAtwvG4t61aGdNpIj0+yeh7ih74VZFiryD/nIf8AN1PJugHRtKnA8y6rGREVPxW1u3wtOadGO6x+&#xA;+/7OKvjEkk1O5PU4Fdir0H8gJxD+cHlpzXeeVPh6/vLeRPu+LfFV/wCf3m2TzJ+aGryBy1ppj/o2&#xA;zXsFtiVkI/1pebfTirzvFXu3/OLv5XW+v6xN5s1aES6ZpEgjsYXFUlvKBuRB6iFSG/1iPDFX1vhV&#xA;2KvlD/nLnyfBYeZNM8zW0YRdXiaC9KigM9tx4u3u8bBf9hgV4DirsVe/f84iea5bTzTqflmVz9V1&#xA;O3+tW6E7C4tyAeI/y4mNf9UYq+rLieG3gkuJ3EcMKtJLI2wVVFWJ+Qwq/P78zvO915186ajrsxb0&#xA;JXMdhE3+67WMkRJTsafE3+UTgVi2KuxV97/kz5LXyh+XelaW6FL2WP63qNev1i4AZ1P+oKJ/scKs&#xA;B/5yu8iw6p5Qh81W0Q/SGiOqXLqPie0mYKQabn05GVh4Atir5GwK+iv+cRPOpg1PU/J9zJ+6vF+v&#xA;6epPSaMBZkHu8fFv9icVfUeFXwl+fHm2TzN+Z+sXAflaWEh06yHUCO2JRiPZ5Ob/AE4Fef4q97/5&#xA;xb/K6DWtVl84atCJLDSZRHpsTiqyXYAYyEHqIQQR/lEfy4q+ssKuxV8mf85b+UYNO816b5jtk4Lr&#xA;ULx3YA2M9rxHM+7Ruo/2OBXguKuxV9B/84hea5rfzDqvleV/9Fv4PrtspOwngIVwo8Xjep/1MVfR&#xA;nnnzhpvk/wArX/mDUDWKzjJihrQyyttHEvu7UHt1wq+A/M3mPVfMmvXuuarL619fSGSVuw7Kijsq&#xA;KAqjwGBUsxV2Ks4/I+VI/wA2fLDOaA3qqD13dWVenucVYZdXM11dTXMzcpp3aWVvFnJZj95xVSxV&#xA;99fk3oEOhflj5csY14u9nHdT9z610PXkqe9GkphVmeKuxV4L/wA5ghP8D6KTTn+kxTxp9Xlr/DFX&#xA;yZgV2KvRv+ceJXj/ADk8uFDQmS4U/JrSUH9eKvpj/nJDzM2hflVqSxMFuNWZNNi/1Z6mYfTCjjCr&#xA;4hwK7FWW/lN5dXzF+ZHl/SXXnDLdpLcJ2MNvWaUfSkZGKv0Awql3mTRYNd8valo1x/c6jazWrnw9&#xA;VCnL5itcVfnPc281tcS286GOeF2jljPVXQ0YH5EYFTryF5mk8r+c9H19CQthcpJMF3LQk8JlH+tE&#xA;zDFX6Ey3KLZvcxkSIIzIhB2YBeQoffCr825ppJpnmlblLIxd2PUsxqTgVZir9APyl8vReX/y38va&#xA;aiBJFs4prgAU/f3C+tLX/ZuRhVluKuxV4H/zmF6X+C9EJp6v6SPDx4+hJy/Hjir5OwK7FXpn/ON0&#xA;sqfnN5fCVpJ9bV1BpVfqcx3+VK4qyf8A5ys8+z6r5uj8qW7kadoYV7hB0kvJU5Fj4+nG4Ue5bFWF&#xA;fl9+VepeY9C17zPdI0OgaFYXl16p2+sXMEDyRwoetAwBdh226nZVgOKuxVmP5Of+TT8rf9tGD/ie&#xA;KpB5m0eTRfMeqaRICG0+7ntTX/iqQoD9NMVS3FX6LeT7uO88paJdx/3dxYWsqd/heFWH68Kpvirs&#xA;VfMf/OY2uK135c0FGHKOOe+nTvSRhFEf+ScmBXzdirsVevf84saQ19+bFvd0+HS7O5uid6VdBbD/&#xA;AKiMVZz/AM5j6u1PLWjow4H6zeTL3qOEcR/F8Sr5oxV2KvcP+cR9I+tfmHe6i6gpp2nyFD3Es0iI&#xA;tP8AYc8VfXuFXYq+C/zx0QaN+a3mO0VSsct0buPwpdqLjb2BkIwKwbFX3p+SuvDzD+VWgXcx9SRb&#xA;X6nc8tyWtSYCW/1hHy+nCr4a1/SpdH13UdJmr6un3M1q9etYZCh/4jgVAYq/RnypcRXHlfR7iFuU&#xA;U1jbSRt4q0KkH7jhVNMVdir5e/5zF1xZNU8u6Ej728M17On/ABmZY4yfl6L/AH4Cr5zxV2KvYv8A&#xA;nFTSTe/mot4VJXTLG4uOdNg0gW3G/iRMcVfTfmT8ofy28yamdU1rQoLnUGZWkuFaSFnKCi+p6Tx+&#xA;ptt8VcKqH5nWmnaR+UHmSzsII7Kyg0q5hgt4FCRoHjKhVVRQAlsVfBOBXYqzH8nP/Jp+Vv8Atowf&#xA;8TxVn3/OVXkaTSPOsfmS3jI0/XkBlYD4Vu4VCuD4c0CsPE8sVeIYq+2/+cbfNEeuflZp0DOGu9HZ&#xA;9PuFHULGeUJp/wAYWUfMHCr1LFXYq+Evz580DzF+aWtXMT8rWzkFhbeHG1HpsR7NKHYfPArz/FXY&#xA;q+o/+cPfLjRaTr3mKVSPrU0djbMRT4YF9SUjxBaVR/scKsH/AOctr1p/zMtbep4WmmQIF7cnllkJ&#xA;+kMMCvFMVdir6d/5w20/jY+aNQI/vZbS3Q+HprK7d/8AixcQr6Qwq7FXyN/zl3pX1fz9puoqKJf6&#xA;cqsdt5IJXDf8I6YFeF4q+uf+cRNSefyBqVi5r9S1JzH7JNDG1P8AglY4VeYf85T+R5dG89DzDBGR&#xA;p2voHZh9lbuJQkq9NuS8X36kt4YFeK4q+4P+cc/NEevflXpaFgbrSOWm3Cjt6H9198LJhV6birsV&#xA;fBv54eah5l/M7W76N+dpbzfUrQ9vStf3VV9ndWf6cCsExV2Kvqj/AJw+8ttb6DrfmKVSDfzx2duT&#xA;/JbqXdh7M0tP9jhV9C4qwn86/wDyVHmj/mBk/hir4IwK7FWY/k5/5NPyt/20YP8AieKvtvz95J0r&#xA;zp5XvNA1IcY7gcoLgCrwzpvHKvup6juKjvhV8H+c/Juu+T9fuNE1qAw3UJrG43jljJPGWJv2kan8&#xA;DuCMCst/Iv8ANVvIPmkteFn0DUwsOpxruU4n93OoHUx8jUd1J70xV9xRSxyxpLEweORQyOpqCpFQ&#xA;QR2OFWLfmp5wXyj5C1fXAwW5hhMdiD3uZv3cO3ejNyPsDir8/WZmYsxJYmpJ3JJwK7FXKrMwVQSx&#xA;NABuSTir9A/ys8pDyn5A0bQ2ULc28Ae8/wCYiYmWbf2dyB7YVfJ3/OTNx6v5x6zHSn1eO0jrXrW1&#xA;jkr/AMPgV5birsVfXv8AziLZ+l+XF/cHrc6pKRT+VIIVFf8AZcsKvcMVdir5w/5zJsA1j5XvwN4p&#xA;buBj/wAZFida/wDIs4Cr5hxV9Nf84aTsYfNtuSOCNYSKO9XFwG/4gMQr2/8AMPyLpXnfytdaDqI4&#xA;iUepa3IFWgnQH05V+VaHxUkd8Kvg7zd5S1vynr1zoeswGC8tm2O/CSMn4ZY2/aR+x+g71GBWa/kP&#xA;+azeQvNBS+Zm8vaqUi1JRv6RBIjuFH+RyPIDqtepAxV9vxyJIiyIwZHAZWG4IO4IwqxH82/OK+UP&#xA;y/1fWVfhdrEYLDxNzN8ERHT7JPM+wxV8Akkmp3J6nArsVbRHd1RFLOxCqqipJOwAAxV+gv5Z+U08&#xA;p+RNG0HiBNa26m7I73Ev7yY17/vHNPbCrJ8VYb+ckJl/KvzStaU06d6/6i8v4Yq+BMCuxVmP5Of+&#xA;TT8rf9tGD/ieKvvzCqS+aPJflXzVZi08w6ZBqMKV9MyrR0r19ORSsiV/yWGKsOsf+ccfyfs7yK7T&#xA;RDI8LB0jmuLiWMkGo5I7lWHs1R44q9LAAAAFAOgxV8z/APOV2r6/q2pab5W0qwurmxsV+uX0kMMj&#xA;o1xICsSclU7xx1P+z9sCvn//AAn5q/6s19/0jTf804q7/Cfmr/qzX3/SNN/zTir0P8hvyx1jWfzH&#xA;0+TVdOuLbTNKP6QuGuIpI1doSPSjBYAEmUqSP5QcVfauFXxb/wA5D+Xtfu/zh8wXFppl3cW7/VOE&#xA;0UEjo1LKAGjKpBoRTArzn/Cfmr/qzX3/AEjTf804q7/Cfmr/AKs19/0jTf8ANOKvsn/nG7S7vTvy&#xA;l0yO7gktriWa6keKZSjj/SHUVUgEVCd8KvT8VdirxD/nLPR9Q1DyPpLWNpJdyxamoZYUaRwr28u9&#xA;FBNKqK/Rir5W/wAJ+av+rNff9I03/NOBX0R/ziFomrWFz5plv7OezDJZJGJ4ni51M5PHmBWlN/ni&#xA;r6QwqkfmryR5T82Wi2vmHS4dRijr6TSAiROXX05UKyJX/JYYqxCw/wCccvygsryK7j0P1XhYOkc9&#xA;xcSx1G45Ru5Vh7MCMVelgU2HTFXzH/zlZq/mDWdY0/yxpen3dzp+mr9au5YYZHje5lFEWqqR+7iP&#xA;j+2fDArwP/Cfmr/qzX3/AEjTf804q7/Cfmr/AKs19/0jTf8ANOKvR/yB/LHV9X/MewuNW064ttM0&#xA;j/chM1xC8au8RHoxguACTIVYj+UHFX2jhV2KsX/NK1nu/wAtvNFvboZJn0u79ONQWZiIWPFQASSa&#xA;UAxV8H/4T81f9Wa+/wCkab/mnArv8J+av+rNff8ASNN/zTirLvyj8teY7f8AM3yzPPpV5DDHqEDS&#xA;SyW8qqoD9SxWgGKvuiUyLE5iUPKFJRGPEFqbAtRqVPemFXjvnv8APLzr5Htbe68weRooYLqRoYHi&#xA;1hJeTKOR2W2qBTxGKonzB+dXmvyx5ei8w+Y/Jf1XS7lo47Z7bUkuZC8qc05qIECIVU/ET1oKb4q9&#xA;I8seYbDzH5e0/XbA1tNRgSeMHqvIfEjf5SNVT7jFWI+Q/wA5tA84+btc8tWdvJb3GkM/ozSMrC5j&#xA;ikMUkiAfZAbjTfcHFWSa75v0/R9X03S545JLjUo7ucGMArFBZQ+rLJJvWlWVBTu2KvPPJ/56+ZPO&#xA;VrcXflryLcX9vayCKd/0jaQ8XI5AUm9MnbwxVE+e/wA8rzyNpWn3PmLyxLb6hqU8sdtYJeRS/uYF&#xA;jMkrSxqyggzABKb+OKs9vvN2kW3k6fzbG5udKisW1JGjpykhEXqgLXuw2374qwfzb+bPnfy3oM/m&#xA;SfyXFL5fiSGVbz9KoshS4ZEj5Qi3dlblIoIBIHjTfFVDQPzl84av5U/xgfJsVv5ZSGe6mvTqyNII&#xA;bRnWbhD9WVmf903FSRXxxVNPJ350aX5j/L3WPOv6NntLXRWnW4teaSO5t4UmPpt8A3WQdaYqnX5Z&#xA;/mDYeffLC69Z2slmnrSW728pVmDx0OzLsQVYHFUX5q1fzjp5tz5d8vRa6snL6x6l+ti0ZFONA8Uo&#xA;cHfuKYq838p/n15x816xqOk6N5HimvNKYreh9XSNVo5j2Zrb4viU9MVT3yd+dlprvn278j3+kyaT&#xA;rVmknPlMs0TzQU9WONgsZYcasrU+JRWgxVN/zV/M/TPy80G31W9tZL17q4W2gtYmVGJKM7MS1fhU&#xA;J4dSMVZPousWOs6NZavYvzsr+CO5gc9eEihhXwIruMVeYea/+ci9F0XTdCvrTSbjUF197oWcfqxw&#xA;n07af0El35/DMfiT2xVk2nebvzIubuOK68hS2NuzKJLiTVLGQKpYBm4xl2PEb0xVKvy3/PPQ/PPm&#xA;jVfL9tZyWU1grSWkkrqxuIo39N24gDgVJU8eR2Ptiqf+YfOup2mvyeXdB0f9Ma1FYpqTwyXK2cXo&#xA;yTmAL6rJL8dVJpx6DrirAbj8/PONv54i8ky+Rox5gmAMduNXjKENEZh+8+rcfsDxxVM9U/PK+0Dz&#xA;RonlnzL5aNlq2tyRBI7W9S7WKK4lEMbs3pQ1YyBgVHYVqa4qnPmv84NH8t/mFofkq6sp5LrWxCY7&#xA;xCgiT6zM0EQIJ5H95Hv0p74qz7FWDfmj+b/lr8vLKF9RD3eo3dTaabAVEjKOruzbIgO1fHoDvRVK&#xA;fKn50ahf3mnweafKV95Vg1eQQaXf3LGW3kmcfu4nYxwtE8n7AK74qv8AzB/PTQ/JXnXSfLF9ZSSi&#xA;/WKW71ASKkdtFNI0auVIJfiUq24ovidsVZn5r80WnlzS47+4ie4E11bWcMMVOTSXcywrSpA258j8&#xA;sVYP5n/O9tM/MUeQtH8vTa5rRRGCx3MVuC7Qm4K1lHH4YviqWGKsn8u+Y/PGoX6Q6v5QfRbM8ud1&#xA;JqFrckUWq0jg5E8jt1xVlWKvnH/nMqaMaf5WhJ/ePNeOo9kWEH/iYxV6p5v8qDzV+UM+iBA9xcaZ&#xA;E9mKf8fEMayQ08KugHyxV45+Qn5mtpH5S+b7KeSl15bhlvdNVjTa5VgiD2FyN/8AXwKxSfSLj8m/&#xA;zX8qag7Mtnc2lnNfsxNP30Ygvwa9eL8pAO1VxV7T5ouxqHmX8xdYAMlt5W8sSabbivwNPdQSXtwV&#xA;O+/BIlJ/twqkf/OHsaDyTrUoHxtqXEn2WCMj/iRxVFfn75Qbzl5ks9FjVmu7PQdS1DTgp63Mc9tx&#xA;Sn+WqlPpxVgHkDzzNqP/ADjx5v8ALMjGW+0eELaJuWa1vZlUBe5KSMw+lRgV67/zkjS2/JXWLeMf&#xA;u62UW/Xit1ER/wARwqkv5aaZdap/ziwdOtFL3V1purR28YFS0hubngo/1jtirA/yo8y6Mv8Azjr5&#xA;30ie6ggv4ReMsDuqO63NsixEBiORZ1ZRTwwKzj/nEL/yWupf9tmf/qFtsKvccVfMP/OLd5LN+Zfn&#xA;AtQC4ikmcAftC67e3xnAqn/zkPbXPkr83fL/AJ+sFIW69OWbjtzmsyscqE9KSW7Iv34qyb85tGH5&#xA;kapdWOnO09r5e8uPrFo0TbPeXsivBHToedvbNSv82FWP/lD+Zstt+Q3miwMhbUtARodOFasRqRMd&#xA;sAOp43Dt9FBgVLfzq0gaF5w/LLQEp6Wl2dlCKd3W5VHav+UUrir6nvp/q9jcXFQvoxPJyPQcVJqf&#xA;uwq+K2tLz8tNc8ged7RGWz1Oxt7yZF/bIAju4h/rwurfNsCvpnynd22p/m15p1C2lWeCPSdGSGRf&#xA;5Lj6xOvHahDCjVwq8k1B3b/nMmMMxISSFUBNaD9EKaD6STgVX/5yIA0j87PInmW8+DS4vqfqS9h9&#xA;SvzNN9yTKcVS/wDPDU7G9/5yC8lT6fdxXKxppYMtvIsgV/0jK4HJCaHiyt8iDir6mwq+Ubi3PnX/&#xA;AJytNnqi+vY6fduggbdFi06FnRaHqrzJVh/lHAr3r857SK5/K3zJ6mzW9m91A42KTW1JomU9iHQY&#xA;VeFfnZ5am813nmzzAqONQ8t2GhTekT1guo53uBTanEsrf7E+OBWReW/O/wDi38tfy9iuXL3tp5p0&#xA;3TdQ33Y2iyTxM1R8XNI0rXvXCqU2ju//ADmYxY1IklWvsujMB+AwK+ncKuxV83f85l2/K08qXHKn&#xA;pyX0fGnX1FgNa+3p4Cr6B8u/8o/pn/MJB/ybXCr5Hu/JF3Z/85F3HlG3Jj03VtRjmuIQPgksGkTU&#xA;mj91T0qfNcCvUv8AnLnyz9e8ladr0aVm0e69OVvCC7ARv+SqR/fhVU/L3S9RP/OOPmLUbwtNqvmK&#xA;w1W9md/tsWtnt4d/AxwqR88VYr/zi3oOs6n5e1Gay8yXmk29tqAM9hbRWzJLWJCGZ5o5WFaUNOww&#xA;K9fnEo/PezLE+k3le6EYJ25jULctQeNKYVfMv5k+Wr3yf+b+o6JYUi0/zBPbywJ0Vra4u47hUHgI&#xA;7iHiP9XAr6G/5yYRm/JzWSBUJJaFj4D61GP1nCqh/wA45T3Ef5I6bJChnmhN8YIa/aYXErBB4VbF&#xA;Xn35p3P5RXX5UHzfY6Vp8PmrzAkUaRw09SK6dla7rEDRWjo4L8a1pvvir0L/AJxk8vXWjflVaPcx&#xA;GGXVbibUAjAhuEgWONiD/NHErD2IxV6vir5c/wCcWY3i/M7zZG44ulvKrL4EXagjFXpH/OT/AJZ/&#xA;TH5XXF7HHzudFnjvUIHxemT6Uo+QSTmf9XFUv/5xW0+7byNea5fMZLjUriO2hkbvaadCttAvyQh1&#xA;xV5J5X8l3mnf85ETeTYappS6mLqe3H2GtLU/X7YOPDiqD6cCsm/5yhR3/NLyiqzG3Z4IVW4FKxk3&#xA;bfGOXw/D13xV7rDoOsaT5a1lNS16716Sa1lKPdR28fp0jfZBBHH9qoryJ6bUwq8q86eTf8R/84x6&#xA;DPDHyv8ARNMtNRtz3KRwgTr/AMiizU8VGKqX/OI97e6ha+Y7y7k9Roo9MsItjURWkc4jqa70Rwvy&#xA;GKpNff8ArZa/8ZYf+6OuBXs3n268p3mu6P5U822FtcaRrMVzLbXF2eKre2zRBIkY8eLPHK9CGB2o&#xA;OuFXz1baD5c13/nJDTdM8m2cMWgaJc28jtbDlEy2BE08jv8AFyDS/u+RJrt7YFfXuFXylrt0Py7/&#xA;AOcn/wBNatWLSNRma4+skEqYL6Jo2f5RTE8qfy4Fex/mRrumeadPtfI+g3ceoXvmR4vrUlo6ypb6&#xA;akiyXNxIyEhQyL6aVPxM1BhVX0Cw0y9/MT8xdMnhDxXFrpMF1GR8LW8tpMgT7uWKvnP8ttI1jy3+&#xA;eNn5LnZmt7TWRNJG3R2tIZ/QnpWgrDMWHzwKyHUNPvtR/wCctbmzsdRl0m6llf09QgSOSSPjpRY8&#xA;VlDIeSgruO+Kvp/Q9OvNO02K0vNRn1W4QsWvblYlkfkSQCIUjTatB8OFUfiqX6z5d0DW4o4tZ021&#xA;1KKFvUhS7hjnVH/mUSBqH5YqxbzF+dX5W+V9Wl0TV9aW0v7QIJbZLe5lCBlDKvKGJ0+yRtXFWPP+&#xA;eX/OPT6wmtPqVs2sRxmGPUTpt2bhYzX4BL9X5gbnauKq2pfn9+QuqWM1hqWsRXljcDjPbT2F7JG4&#xA;BqOStbkGhFcVZN5J84/l55v0q507ytIl3pNjGtrPbJaTW9ukcilViVZYokI4g/CvQYqlx/IP8oCa&#xA;/wCGrf8A4Of/AKqYqyby/wCTfKvl6GKHRtLt7JYFdIWRKuqykNIokar0ZkBYV3IxVXv/AC15e1HU&#xA;LXUr/TLW71Cx/wB47ueGOSWLfl+7dgStCKimKrvMMeivod8dcgjudIjhea+gmi+sIYoh6jVhCuXp&#xA;xqAFJr03xV53p/5//kNptnFZadrEVnZwikNtb6feRRoK1oqJbhRvirHb7z3/AM4oX+tPrV4bOfUp&#xA;G5yzPp98Q79eTR+h6bN4krU4q9Z8nedvKvm/TZNQ8tXovbG3lNtI4ilh4yKivx4TJG32XG9KYqnu&#xA;Kpdpvlvy9pd1dXemaZaWN1etzvJ7eCOJ5WJrWRkALbmu/fFWL+dPza/KvQb248u+adTjjneIfWrG&#xA;S1uLlGimX7L+nFKhDL+yTiqTaN+e/wCRNhbW2k6PqsVrbIfTtbK20+9jQF2rRUW3AqzNX3JxV6IN&#xA;B0NdYbWhp9uNYaP0G1ERJ9YMX8hlpy47dK4qlfmr8vPJfmyW3l8w6VFqEtqrLbvIXUqrEEiqMvhi&#xA;qWaV+S/5XaVqEGo2Hl63hvLZhJBLylcq67hgHdhUfLFUJrv5wflD5Wu5fLGp6nDZSWKLBJp0VpcS&#xA;RRxtGCsdIIXipwYDiOnTFUk0X88f+cedCtDZ6LqVvp1qWLtDa6deRKWOxYhLcVPucVab87v+cdn1&#xA;hdba/tG1lF4JqR0y6NyFpxoJvq3OnE069MVZRpfmP8tPzT0m9srThr2mW7ILpJ7W4jjV2qU4tPHF&#xA;8YpX4DUe1cVTnyx5I8peVopI/L+lW+nCanrPCvxvx6B5DV2A7VOKp3iqR+a/JHlTzbZpaeYtNi1C&#xA;GMkxGTkroW2bhIhV0rTfi2Ku8q+R/KXlS3e38vaXBpyS8fWaMEyScfs85HLO9KmnJsVTaKys4rma&#xA;6igjjurkILidUUSSCMEJzYCrcQTSvTFXlt1+cP8Azj5ZeZbjU57y1j8xQlre4v8A9HXRuQYwYmX1&#xA;hbltgOOzdPbFWO+YPO3/ADih5h1WXVtZmgvNRnCia5a01NWf01CLXhEo2VQMVTHyJ5y/5xo0rzBb&#xA;xeUZobbWdTdLGApbagGdp3VUj5Sx8VDPTqQPHFXtOKpN5y802HlXyvqPmC+P+j6fC0nCtDJIfhjj&#xA;BPd3IUfPFX57avqt9q+q3eqX8hlvb6Z7i4kPd5GLN9G+2BUJiqI03Tr3UtQttPsYmnvLuVILeFd2&#xA;eSRgqqPmTir76/LDyHZ+R/JtloUFHuFHrahcD/dt1IB6j/IUCr/kgYVZXirsVdirTojoyOoZGBVl&#xA;YVBB2IIOKvz9/NDydL5P89atoRUi3hmMlixr8VtL8cJr3orcT7g4FYrir6P/AOcPPMiR32v+W5Xo&#xA;Z0iv7VD4xn0pvweP7sVfT2FXYq+Afze8wL5g/MvzDqaHlE928MDVrWK3AgjP0rGDgVNPyC8qN5k/&#xA;NLR4GTla6e/6Su/AJakMlR3DTFFPzxV91YVdiqR+d/Ndj5T8qal5gvaGKxhLpGTQySn4Yox7u5C4&#xA;q/PfU9SvdU1K61K+kM15eyvPcynq0kjFmP3nAqGxVE6Xpl9quo22m2ELXF7eSrDbQr1Z3PFR95xV&#xA;9+/lt5FsfJHlCx0G1o8sS+pe3AFDNcvvJJ8q7L4KAMKsnxV2KuxV2KuxV+e35mWzWv5i+aIGBHDV&#xA;r3jXqVNw5U/SprgVjeKp/wDl8zJ598tOp4suq2RUjqCLhMVfodhV8yf85deeS0+m+S7ST4IwNQ1M&#xA;D+Y1WCM/IcnI91OBXzbirsVfSn/OKX5Yc3fz7qcXwoXt9DRh1O6TXH0bxr/svbFX0zhV2KuxV2Ku&#xA;xV4N/wA5Vflw+saBB5v0+LnfaKhjv1UVZ7Jm5cvH9y5J/wBVmPbFXyXgVkn5ceb5vKHnbSdfjLel&#xA;aTD62i9Xt5PgmWncmNjT3pir9BreeG4gjuIHEkMyrJFIu4ZWFVI+YwqxD83vOkfk/wDL/VdXDhbw&#xA;xm204d2uZwUjp0rw3c+ynFXwJgV9ef8AOKvkGTRfKM/mW9jKXuvFTbKwoVs4ieB3/wB+sS3uvE4V&#xA;e44q7FXy/wD85deeTNe6d5MtZP3dsBf6kB3lcFYEO/7KFmI/ylwK+csVdir6Y/5xT/K+iv581SH4&#xA;jzg0NHHbdJrgV+mNf9l7Yq+lcKuxV2KuxV2KuxV8H/nxaC1/N3zNEBTlcrL3/wB3RJL3/wBfArAs&#xA;VTTypKIvNGjyluAjvrZi9aUpMprX2xV+jOFX5/8A5t6je6h+Zvme5vQRONRuIQrdVjgcwxL9Ecaj&#xA;ArEsVbXiGHIErX4gDQkexocVfRWhf85cWmladaaZD5NSCws40ggSC+ICRIAoAVoDU7d2xVP7b/nM&#xA;Xyw1PrPl+9j3+L05YpKD25enhV6h+XX5teT/AD/BM2iSyR3dsA1zYXKiOdFY0DUUurLXurH3xVme&#xA;KuxV2KrZYoponhlQSRSKUkRhVWVhQgg9QRir4t/Pb8lb3yRq0mq6XC83lW8flDKoLfVXY/3Ep32r&#xA;9hj16dRgV5Nir6K/I3/nIzS9C0BfLnnKWVbewULpWoIjTEQj/dEirVvg/YIHTbagxVgf55fnFL+Y&#xA;Wsww2KSW3l3Tq/UoJKB5ZG2aeRQSAabKKmg+ZxVD/kj+U955+8zJ66Mnl3T2WTVbnpyHVbdD/PJT&#xA;f+Vd/AFV9yW9vBbwR29vGsUEKrHFEgCqqKKKqgdAAMKr8Vdir8+/zU1C81D8yfM1zeEmf9JXMRB6&#xA;qkMpiRd/5UQLgVi2KtoVDqXHJARyUGhI7iu+KvozRP8AnLqz02xtdOj8mrBY2iLDBHBfUEcSKFVQ&#xA;rQb0p/Niqe23/OYvlhqfWfL97Hv8XpyxSUHty9PCr1L8u/zY8n+fraV9EndLq3Aa50+5UR3EanYM&#xA;VBZWWvdWOKsxxV2KuxV2Kvin/nJ+wNt+b+ozH/j+t7Scf7GBYfD/AIpwK8oxVVtLg213DcBeRhkW&#xA;QL0rxINPwxV+lGFXlX5lf847eT/O2pSaws02kaxMAJ7i3CvFKwFA8sTUq1O6ste+KvJ9S/5w782R&#xA;sf0Zr1hdLXY3KTWxp8kW4wUqUH/nEr80ASPrGln3FxL/ANUcVVIv+cR/zNevK90mKnTnPOa/8Dbt&#xA;iqb2H/OHPmNyv6Q8xWduNuRt4ZZ6eNOZgrjSvZ/yo/Jfy/8Al0l3LZXU1/qN8qJc3cwVRwQkhY41&#xA;+yCTU1Y4VehYq7FXYq7FVG8s7S9tZbS8hS5tZ1Mc8Eqh0dG2KsrVBBxV8++e/wDnEjT726lvfJ2o&#xA;rpxkJb9GXgZ4FJ7RzJykRfYq3z7Yq89f/nFL81VcqBp7gftrcmh+9AfwwKyryl/ziBqTXKTebNYh&#xA;jtVNWtNN5SSOPAzSqgT6EbFX0d5c8t6J5b0iDSNEtEstPtxSOFO57szGrMzd2Y1OFUyxV2KuxV5R&#xA;+ZH/ADjl5O86apLrKXE+kavP/vRNAFeKVgAA8kTU+LbqrLXvvirynUv+cO/NkbH9Ga9YXS12Nyk1&#xA;safJFuMFKlB/5xL/ADQ/5aNL/wCkiX/qjiqpF/ziN+Zr15XukRU6c57g1+XG3bFU4sP+cOfMTsP0&#xA;h5is7de5t4ZZz9zmDGle0/lT+Tfl/wDLqG7awuJr6/vwi3V3PxX4Y6lVjRR8K1apqSffCrP8Vdir&#xA;sVdirwX/AJya/KTXvNBsPMnl21+u3tjC1tfWkdPWeENzjaNf2yhZ6qN9xTFXyleWN7Y3D217byWt&#xA;zGaSQTI0bqfdWAIwKn/kTyB5i8563badpVnNLDJKqXd6qEw28ZI5vI/2RxU1pWp6DfFX/9k=</xmpGImg:image>
               </rdf:li>
            </rdf:Alt>
         </xmp:Thumbnails>
         <xmpMM:InstanceID>xmp.iid:bfc50b73-95e5-f942-b82a-4b121833dec8</xmpMM:InstanceID>
         <xmpMM:DocumentID>xmp.did:bfc50b73-95e5-f942-b82a-4b121833dec8</xmpMM:DocumentID>
         <xmpMM:OriginalDocumentID>uuid:5D20892493BFDB11914A8590D31508C8</xmpMM:OriginalDocumentID>
         <xmpMM:RenditionClass>proof:pdf</xmpMM:RenditionClass>
         <xmpMM:DerivedFrom rdf:parseType="Resource">
            <stRef:instanceID>xmp.iid:4e53b0c0-db42-be42-9b88-36311bc13826</stRef:instanceID>
            <stRef:documentID>xmp.did:4e53b0c0-db42-be42-9b88-36311bc13826</stRef:documentID>
            <stRef:originalDocumentID>uuid:5D20892493BFDB11914A8590D31508C8</stRef:originalDocumentID>
            <stRef:renditionClass>proof:pdf</stRef:renditionClass>
         </xmpMM:DerivedFrom>
         <xmpMM:History>
            <rdf:Seq>
               <rdf:li rdf:parseType="Resource">
                  <stEvt:action>saved</stEvt:action>
                  <stEvt:instanceID>xmp.iid:721f5753-c253-d643-acc3-2ddc6d464587</stEvt:instanceID>
                  <stEvt:when>2018-05-21T17:56:06+10:00</stEvt:when>
                  <stEvt:softwareAgent>Adobe Illustrator CC 2015 (Windows)</stEvt:softwareAgent>
                  <stEvt:changed>/</stEvt:changed>
               </rdf:li>
               <rdf:li rdf:parseType="Resource">
                  <stEvt:action>saved</stEvt:action>
                  <stEvt:instanceID>xmp.iid:415f9422-d752-494c-b218-bfa0618b51d1</stEvt:instanceID>
                  <stEvt:when>2018-05-22T11:06:58+10:00</stEvt:when>
                  <stEvt:softwareAgent>Adobe Illustrator CC 2015 (Windows)</stEvt:softwareAgent>
                  <stEvt:changed>/</stEvt:changed>
               </rdf:li>
               <rdf:li rdf:parseType="Resource">
                  <stEvt:action>converted</stEvt:action>
                  <stEvt:parameters>from application/postscript to application/vnd.adobe.illustrator</stEvt:parameters>
               </rdf:li>
               <rdf:li rdf:parseType="Resource">
                  <stEvt:action>converted</stEvt:action>
                  <stEvt:parameters>from application/postscript to application/vnd.adobe.illustrator</stEvt:parameters>
               </rdf:li>
               <rdf:li rdf:parseType="Resource">
                  <stEvt:action>converted</stEvt:action>
                  <stEvt:parameters>from application/postscript to application/vnd.adobe.illustrator</stEvt:parameters>
               </rdf:li>
               <rdf:li rdf:parseType="Resource">
                  <stEvt:action>converted</stEvt:action>
                  <stEvt:parameters>from application/postscript to application/vnd.adobe.illustrator</stEvt:parameters>
               </rdf:li>
               <rdf:li rdf:parseType="Resource">
                  <stEvt:action>converted</stEvt:action>
                  <stEvt:parameters>from application/postscript to application/vnd.adobe.illustrator</stEvt:parameters>
               </rdf:li>
               <rdf:li rdf:parseType="Resource">
                  <stEvt:action>saved</stEvt:action>
                  <stEvt:instanceID>xmp.iid:97eba4f5-01e2-f84f-af30-5facc61fe3a3</stEvt:instanceID>
                  <stEvt:when>2020-12-10T19:32:47+11:00</stEvt:when>
                  <stEvt:softwareAgent>Adobe Illustrator 25.0 (Windows)</stEvt:softwareAgent>
                  <stEvt:changed>/</stEvt:changed>
               </rdf:li>
               <rdf:li rdf:parseType="Resource">
                  <stEvt:action>saved</stEvt:action>
                  <stEvt:instanceID>xmp.iid:bfc50b73-95e5-f942-b82a-4b121833dec8</stEvt:instanceID>
                  <stEvt:when>2020-12-10T19:49:52+11:00</stEvt:when>
                  <stEvt:softwareAgent>Adobe Illustrator 25.0 (Windows)</stEvt:softwareAgent>
                  <stEvt:changed>/</stEvt:changed>
               </rdf:li>
            </rdf:Seq>
         </xmpMM:History>
         <illustrator:StartupProfile>Print</illustrator:StartupProfile>
         <pdf:Producer>Adobe PDF library 10.01</pdf:Producer>
         <xmpTPg:MaxPageSize rdf:parseType="Resource">
            <stDim:w>12.000000</stDim:w>
            <stDim:h>12.000000</stDim:h>
            <stDim:unit>Inches</stDim:unit>
         </xmpTPg:MaxPageSize>
         <xmpTPg:NPages>1</xmpTPg:NPages>
         <xmpTPg:HasVisibleTransparency>False</xmpTPg:HasVisibleTransparency>
         <xmpTPg:HasVisibleOverprint>False</xmpTPg:HasVisibleOverprint>
         <xmpTPg:PlateNames>
            <rdf:Seq>
               <rdf:li>Black</rdf:li>
            </rdf:Seq>
         </xmpTPg:PlateNames>
         <xmpTPg:SwatchGroups>
            <rdf:Seq>
               <rdf:li rdf:parseType="Resource">
                  <xmpG:groupName>Default Swatch Group</xmpG:groupName>
                  <xmpG:groupType>0</xmpG:groupType>
                  <xmpG:Colorants>
                     <rdf:Seq>
                        <rdf:li rdf:parseType="Resource">
                           <xmpG:swatchName>White</xmpG:swatchName>
                           <xmpG:mode>CMYK</xmpG:mode>
                           <xmpG:type>PROCESS</xmpG:type>
                           <xmpG:cyan>0.000000</xmpG:cyan>
                           <xmpG:magenta>0.000000</xmpG:magenta>
                           <xmpG:yellow>0.000000</xmpG:yellow>
                           <xmpG:black>0.000000</xmpG:black>
                        </rdf:li>
                        <rdf:li rdf:parseType="Resource">
                           <xmpG:swatchName>Black</xmpG:swatchName>
                           <xmpG:mode>CMYK</xmpG:mode>
                           <xmpG:type>PROCESS</xmpG:type>
                           <xmpG:cyan>0.000000</xmpG:cyan>
                           <xmpG:magenta>0.000000</xmpG:magenta>
                           <xmpG:yellow>0.000000</xmpG:yellow>
                           <xmpG:black>100.000000</xmpG:black>
                        </rdf:li>
                        <rdf:li rdf:parseType="Resource">
                           <xmpG:swatchName>CMYK Red</xmpG:swatchName>
                           <xmpG:mode>CMYK</xmpG:mode>
                           <xmpG:type>PROCESS</xmpG:type>
                           <xmpG:cyan>0.000000</xmpG:cyan>
                           <xmpG:magenta>100.000000</xmpG:magenta>
                           <xmpG:yellow>100.000000</xmpG:yellow>
                           <xmpG:black>0.000000</xmpG:black>
                        </rdf:li>
                        <rdf:li rdf:parseType="Resource">
                           <xmpG:swatchName>CMYK Yellow</xmpG:swatchName>
                           <xmpG:mode>CMYK</xmpG:mode>
                           <xmpG:type>PROCESS</xmpG:type>
                           <xmpG:cyan>0.000000</xmpG:cyan>
                           <xmpG:magenta>0.000000</xmpG:magenta>
                           <xmpG:yellow>100.000000</xmpG:yellow>
                           <xmpG:black>0.000000</xmpG:black>
                        </rdf:li>
                        <rdf:li rdf:parseType="Resource">
                           <xmpG:swatchName>CMYK Green</xmpG:swatchName>
                           <xmpG:mode>CMYK</xmpG:mode>
                           <xmpG:type>PROCESS</xmpG:type>
                           <xmpG:cyan>100.000000</xmpG:cyan>
                           <xmpG:magenta>0.000000</xmpG:magenta>
                           <xmpG:yellow>100.000000</xmpG:yellow>
                           <xmpG:black>0.000000</xmpG:black>
                        </rdf:li>
                        <rdf:li rdf:parseType="Resource">
                           <xmpG:swatchName>CMYK Cyan</xmpG:swatchName>
                           <xmpG:mode>CMYK</xmpG:mode>
                           <xmpG:type>PROCESS</xmpG:type>
                           <xmpG:cyan>100.000000</xmpG:cyan>
                           <xmpG:magenta>0.000000</xmpG:magenta>
                           <xmpG:yellow>0.000000</xmpG:yellow>
                           <xmpG:black>0.000000</xmpG:black>
                        </rdf:li>
                        <rdf:li rdf:parseType="Resource">
                           <xmpG:swatchName>CMYK Blue</xmpG:swatchName>
                           <xmpG:mode>CMYK</xmpG:mode>
                           <xmpG:type>PROCESS</xmpG:type>
                           <xmpG:cyan>100.000000</xmpG:cyan>
                           <xmpG:magenta>100.000000</xmpG:magenta>
                           <xmpG:yellow>0.000000</xmpG:yellow>
                           <xmpG:black>0.000000</xmpG:black>
                        </rdf:li>
                        <rdf:li rdf:parseType="Resource">
                           <xmpG:swatchName>CMYK Magenta</xmpG:swatchName>
                           <xmpG:mode>CMYK</xmpG:mode>
                           <xmpG:type>PROCESS</xmpG:type>
                           <xmpG:cyan>0.000000</xmpG:cyan>
                           <xmpG:magenta>100.000000</xmpG:magenta>
                           <xmpG:yellow>0.000000</xmpG:yellow>
                           <xmpG:black>0.000000</xmpG:black>
                        </rdf:li>
                        <rdf:li rdf:parseType="Resource">
                           <xmpG:swatchName>C=15 M=100 Y=90 K=10</xmpG:swatchName>
                           <xmpG:mode>CMYK</xmpG:mode>
                           <xmpG:type>PROCESS</xmpG:type>
                           <xmpG:cyan>15.000000</xmpG:cyan>
                           <xmpG:magenta>100.000000</xmpG:magenta>
                           <xmpG:yellow>90.000000</xmpG:yellow>
                           <xmpG:black>10.000000</xmpG:black>
                        </rdf:li>
                        <rdf:li rdf:parseType="Resource">
                           <xmpG:swatchName>C=0 M=90 Y=85 K=0</xmpG:swatchName>
                           <xmpG:mode>CMYK</xmpG:mode>
                           <xmpG:type>PROCESS</xmpG:type>
                           <xmpG:cyan>0.000000</xmpG:cyan>
                           <xmpG:magenta>90.000000</xmpG:magenta>
                           <xmpG:yellow>85.000000</xmpG:yellow>
                           <xmpG:black>0.000000</xmpG:black>
                        </rdf:li>
                        <rdf:li rdf:parseType="Resource">
                           <xmpG:swatchName>C=0 M=80 Y=95 K=0</xmpG:swatchName>
                           <xmpG:mode>CMYK</xmpG:mode>
                           <xmpG:type>PROCESS</xmpG:type>
                           <xmpG:cyan>0.000000</xmpG:cyan>
                           <xmpG:magenta>80.000000</xmpG:magenta>
                           <xmpG:yellow>95.000000</xmpG:yellow>
                           <xmpG:black>0.000000</xmpG:black>
                        </rdf:li>
                        <rdf:li rdf:parseType="Resource">
                           <xmpG:swatchName>C=0 M=50 Y=100 K=0</xmpG:swatchName>
                           <xmpG:mode>CMYK</xmpG:mode>
                           <xmpG:type>PROCESS</xmpG:type>
                           <xmpG:cyan>0.000000</xmpG:cyan>
                           <xmpG:magenta>50.000000</xmpG:magenta>
                           <xmpG:yellow>100.000000</xmpG:yellow>
                           <xmpG:black>0.000000</xmpG:black>
                        </rdf:li>
                        <rdf:li rdf:parseType="Resource">
                           <xmpG:swatchName>C=0 M=35 Y=85 K=0</xmpG:swatchName>
                           <xmpG:mode>CMYK</xmpG:mode>
                           <xmpG:type>PROCESS</xmpG:type>
                           <xmpG:cyan>0.000000</xmpG:cyan>
                           <xmpG:magenta>35.000000</xmpG:magenta>
                           <xmpG:yellow>85.000000</xmpG:yellow>
                           <xmpG:black>0.000000</xmpG:black>
                        </rdf:li>
                        <rdf:li rdf:parseType="Resource">
                           <xmpG:swatchName>C=5 M=0 Y=90 K=0</xmpG:swatchName>
                           <xmpG:mode>CMYK</xmpG:mode>
                           <xmpG:type>PROCESS</xmpG:type>
                           <xmpG:cyan>5.000000</xmpG:cyan>
                           <xmpG:magenta>0.000000</xmpG:magenta>
                           <xmpG:yellow>90.000000</xmpG:yellow>
                           <xmpG:black>0.000000</xmpG:black>
                        </rdf:li>
                        <rdf:li rdf:parseType="Resource">
                           <xmpG:swatchName>C=20 M=0 Y=100 K=0</xmpG:swatchName>
                           <xmpG:mode>CMYK</xmpG:mode>
                           <xmpG:type>PROCESS</xmpG:type>
                           <xmpG:cyan>20.000000</xmpG:cyan>
                           <xmpG:magenta>0.000000</xmpG:magenta>
                           <xmpG:yellow>100.000000</xmpG:yellow>
                           <xmpG:black>0.000000</xmpG:black>
                        </rdf:li>
                        <rdf:li rdf:parseType="Resource">
                           <xmpG:swatchName>C=50 M=0 Y=100 K=0</xmpG:swatchName>
                           <xmpG:mode>CMYK</xmpG:mode>
                           <xmpG:type>PROCESS</xmpG:type>
                           <xmpG:cyan>50.000000</xmpG:cyan>
                           <xmpG:magenta>0.000000</xmpG:magenta>
                           <xmpG:yellow>100.000000</xmpG:yellow>
                           <xmpG:black>0.000000</xmpG:black>
                        </rdf:li>
                        <rdf:li rdf:parseType="Resource">
                           <xmpG:swatchName>C=75 M=0 Y=100 K=0</xmpG:swatchName>
                           <xmpG:mode>CMYK</xmpG:mode>
                           <xmpG:type>PROCESS</xmpG:type>
                           <xmpG:cyan>75.000000</xmpG:cyan>
                           <xmpG:magenta>0.000000</xmpG:magenta>
                           <xmpG:yellow>100.000000</xmpG:yellow>
                           <xmpG:black>0.000000</xmpG:black>
                        </rdf:li>
                        <rdf:li rdf:parseType="Resource">
                           <xmpG:swatchName>C=85 M=10 Y=100 K=10</xmpG:swatchName>
                           <xmpG:mode>CMYK</xmpG:mode>
                           <xmpG:type>PROCESS</xmpG:type>
                           <xmpG:cyan>85.000000</xmpG:cyan>
                           <xmpG:magenta>10.000000</xmpG:magenta>
                           <xmpG:yellow>100.000000</xmpG:yellow>
                           <xmpG:black>10.000000</xmpG:black>
                        </rdf:li>
                        <rdf:li rdf:parseType="Resource">
                           <xmpG:swatchName>C=90 M=30 Y=95 K=30</xmpG:swatchName>
                           <xmpG:mode>CMYK</xmpG:mode>
                           <xmpG:type>PROCESS</xmpG:type>
                           <xmpG:cyan>90.000000</xmpG:cyan>
                           <xmpG:magenta>30.000000</xmpG:magenta>
                           <xmpG:yellow>95.000000</xmpG:yellow>
                           <xmpG:black>30.000000</xmpG:black>
                        </rdf:li>
                        <rdf:li rdf:parseType="Resource">
                           <xmpG:swatchName>C=75 M=0 Y=75 K=0</xmpG:swatchName>
                           <xmpG:mode>CMYK</xmpG:mode>
                           <xmpG:type>PROCESS</xmpG:type>
                           <xmpG:cyan>75.000000</xmpG:cyan>
                           <xmpG:magenta>0.000000</xmpG:magenta>
                           <xmpG:yellow>75.000000</xmpG:yellow>
                           <xmpG:black>0.000000</xmpG:black>
                        </rdf:li>
                        <rdf:li rdf:parseType="Resource">
                           <xmpG:swatchName>C=80 M=10 Y=45 K=0</xmpG:swatchName>
                           <xmpG:mode>CMYK</xmpG:mode>
                           <xmpG:type>PROCESS</xmpG:type>
                           <xmpG:cyan>80.000000</xmpG:cyan>
                           <xmpG:magenta>10.000000</xmpG:magenta>
                           <xmpG:yellow>45.000000</xmpG:yellow>
                           <xmpG:black>0.000000</xmpG:black>
                        </rdf:li>
                        <rdf:li rdf:parseType="Resource">
                           <xmpG:swatchName>C=70 M=15 Y=0 K=0</xmpG:swatchName>
                           <xmpG:mode>CMYK</xmpG:mode>
                           <xmpG:type>PROCESS</xmpG:type>
                           <xmpG:cyan>70.000000</xmpG:cyan>
                           <xmpG:magenta>15.000000</xmpG:magenta>
                           <xmpG:yellow>0.000000</xmpG:yellow>
                           <xmpG:black>0.000000</xmpG:black>
                        </rdf:li>
                        <rdf:li rdf:parseType="Resource">
                           <xmpG:swatchName>C=85 M=50 Y=0 K=0</xmpG:swatchName>
                           <xmpG:mode>CMYK</xmpG:mode>
                           <xmpG:type>PROCESS</xmpG:type>
                           <xmpG:cyan>85.000000</xmpG:cyan>
                           <xmpG:magenta>50.000000</xmpG:magenta>
                           <xmpG:yellow>0.000000</xmpG:yellow>
                           <xmpG:black>0.000000</xmpG:black>
                        </rdf:li>
                        <rdf:li rdf:parseType="Resource">
                           <xmpG:swatchName>C=100 M=95 Y=5 K=0</xmpG:swatchName>
                           <xmpG:mode>CMYK</xmpG:mode>
                           <xmpG:type>PROCESS</xmpG:type>
                           <xmpG:cyan>100.000000</xmpG:cyan>
                           <xmpG:magenta>95.000000</xmpG:magenta>
                           <xmpG:yellow>5.000000</xmpG:yellow>
                           <xmpG:black>0.000000</xmpG:black>
                        </rdf:li>
                        <rdf:li rdf:parseType="Resource">
                           <xmpG:swatchName>C=100 M=100 Y=25 K=25</xmpG:swatchName>
                           <xmpG:mode>CMYK</xmpG:mode>
                           <xmpG:type>PROCESS</xmpG:type>
                           <xmpG:cyan>100.000000</xmpG:cyan>
                           <xmpG:magenta>100.000000</xmpG:magenta>
                           <xmpG:yellow>25.000000</xmpG:yellow>
                           <xmpG:black>25.000000</xmpG:black>
                        </rdf:li>
                        <rdf:li rdf:parseType="Resource">
                           <xmpG:swatchName>C=75 M=100 Y=0 K=0</xmpG:swatchName>
                           <xmpG:mode>CMYK</xmpG:mode>
                           <xmpG:type>PROCESS</xmpG:type>
                           <xmpG:cyan>75.000000</xmpG:cyan>
                           <xmpG:magenta>100.000000</xmpG:magenta>
                           <xmpG:yellow>0.000000</xmpG:yellow>
                           <xmpG:black>0.000000</xmpG:black>
                        </rdf:li>
                        <rdf:li rdf:parseType="Resource">
                           <xmpG:swatchName>C=50 M=100 Y=0 K=0</xmpG:swatchName>
                           <xmpG:mode>CMYK</xmpG:mode>
                           <xmpG:type>PROCESS</xmpG:type>
                           <xmpG:cyan>50.000000</xmpG:cyan>
                           <xmpG:magenta>100.000000</xmpG:magenta>
                           <xmpG:yellow>0.000000</xmpG:yellow>
                           <xmpG:black>0.000000</xmpG:black>
                        </rdf:li>
                        <rdf:li rdf:parseType="Resource">
                           <xmpG:swatchName>C=35 M=100 Y=35 K=10</xmpG:swatchName>
                           <xmpG:mode>CMYK</xmpG:mode>
                           <xmpG:type>PROCESS</xmpG:type>
                           <xmpG:cyan>35.000000</xmpG:cyan>
                           <xmpG:magenta>100.000000</xmpG:magenta>
                           <xmpG:yellow>35.000000</xmpG:yellow>
                           <xmpG:black>10.000000</xmpG:black>
                        </rdf:li>
                        <rdf:li rdf:parseType="Resource">
                           <xmpG:swatchName>C=10 M=100 Y=50 K=0</xmpG:swatchName>
                           <xmpG:mode>CMYK</xmpG:mode>
                           <xmpG:type>PROCESS</xmpG:type>
                           <xmpG:cyan>10.000000</xmpG:cyan>
                           <xmpG:magenta>100.000000</xmpG:magenta>
                           <xmpG:yellow>50.000000</xmpG:yellow>
                           <xmpG:black>0.000000</xmpG:black>
                        </rdf:li>
                        <rdf:li rdf:parseType="Resource">
                           <xmpG:swatchName>C=0 M=95 Y=20 K=0</xmpG:swatchName>
                           <xmpG:mode>CMYK</xmpG:mode>
                           <xmpG:type>PROCESS</xmpG:type>
                           <xmpG:cyan>0.000000</xmpG:cyan>
                           <xmpG:magenta>95.000000</xmpG:magenta>
                           <xmpG:yellow>20.000000</xmpG:yellow>
                           <xmpG:black>0.000000</xmpG:black>
                        </rdf:li>
                        <rdf:li rdf:parseType="Resource">
                           <xmpG:swatchName>C=25 M=25 Y=40 K=0</xmpG:swatchName>
                           <xmpG:mode>CMYK</xmpG:mode>
                           <xmpG:type>PROCESS</xmpG:type>
                           <xmpG:cyan>25.000000</xmpG:cyan>
                           <xmpG:magenta>25.000000</xmpG:magenta>
                           <xmpG:yellow>40.000000</xmpG:yellow>
                           <xmpG:black>0.000000</xmpG:black>
                        </rdf:li>
                        <rdf:li rdf:parseType="Resource">
                           <xmpG:swatchName>C=40 M=45 Y=50 K=5</xmpG:swatchName>
                           <xmpG:mode>CMYK</xmpG:mode>
                           <xmpG:type>PROCESS</xmpG:type>
                           <xmpG:cyan>40.000000</xmpG:cyan>
                           <xmpG:magenta>45.000000</xmpG:magenta>
                           <xmpG:yellow>50.000000</xmpG:yellow>
                           <xmpG:black>5.000000</xmpG:black>
                        </rdf:li>
                        <rdf:li rdf:parseType="Resource">
                           <xmpG:swatchName>C=50 M=50 Y=60 K=25</xmpG:swatchName>
                           <xmpG:mode>CMYK</xmpG:mode>
                           <xmpG:type>PROCESS</xmpG:type>
                           <xmpG:cyan>50.000000</xmpG:cyan>
                           <xmpG:magenta>50.000000</xmpG:magenta>
                           <xmpG:yellow>60.000000</xmpG:yellow>
                           <xmpG:black>25.000000</xmpG:black>
                        </rdf:li>
                        <rdf:li rdf:parseType="Resource">
                           <xmpG:swatchName>C=55 M=60 Y=65 K=40</xmpG:swatchName>
                           <xmpG:mode>CMYK</xmpG:mode>
                           <xmpG:type>PROCESS</xmpG:type>
                           <xmpG:cyan>55.000000</xmpG:cyan>
                           <xmpG:magenta>60.000000</xmpG:magenta>
                           <xmpG:yellow>65.000000</xmpG:yellow>
                           <xmpG:black>40.000000</xmpG:black>
                        </rdf:li>
                        <rdf:li rdf:parseType="Resource">
                           <xmpG:swatchName>C=25 M=40 Y=65 K=0</xmpG:swatchName>
                           <xmpG:mode>CMYK</xmpG:mode>
                           <xmpG:type>PROCESS</xmpG:type>
                           <xmpG:cyan>25.000000</xmpG:cyan>
                           <xmpG:magenta>40.000000</xmpG:magenta>
                           <xmpG:yellow>65.000000</xmpG:yellow>
                           <xmpG:black>0.000000</xmpG:black>
                        </rdf:li>
                        <rdf:li rdf:parseType="Resource">
                           <xmpG:swatchName>C=30 M=50 Y=75 K=10</xmpG:swatchName>
                           <xmpG:mode>CMYK</xmpG:mode>
                           <xmpG:type>PROCESS</xmpG:type>
                           <xmpG:cyan>30.000000</xmpG:cyan>
                           <xmpG:magenta>50.000000</xmpG:magenta>
                           <xmpG:yellow>75.000000</xmpG:yellow>
                           <xmpG:black>10.000000</xmpG:black>
                        </rdf:li>
                        <rdf:li rdf:parseType="Resource">
                           <xmpG:swatchName>C=35 M=60 Y=80 K=25</xmpG:swatchName>
                           <xmpG:mode>CMYK</xmpG:mode>
                           <xmpG:type>PROCESS</xmpG:type>
                           <xmpG:cyan>35.000000</xmpG:cyan>
                           <xmpG:magenta>60.000000</xmpG:magenta>
                           <xmpG:yellow>80.000000</xmpG:yellow>
                           <xmpG:black>25.000000</xmpG:black>
                        </rdf:li>
                        <rdf:li rdf:parseType="Resource">
                           <xmpG:swatchName>C=40 M=65 Y=90 K=35</xmpG:swatchName>
                           <xmpG:mode>CMYK</xmpG:mode>
                           <xmpG:type>PROCESS</xmpG:type>
                           <xmpG:cyan>40.000000</xmpG:cyan>
                           <xmpG:magenta>65.000000</xmpG:magenta>
                           <xmpG:yellow>90.000000</xmpG:yellow>
                           <xmpG:black>35.000000</xmpG:black>
                        </rdf:li>
                        <rdf:li rdf:parseType="Resource">
                           <xmpG:swatchName>C=40 M=70 Y=100 K=50</xmpG:swatchName>
                           <xmpG:mode>CMYK</xmpG:mode>
                           <xmpG:type>PROCESS</xmpG:type>
                           <xmpG:cyan>40.000000</xmpG:cyan>
                           <xmpG:magenta>70.000000</xmpG:magenta>
                           <xmpG:yellow>100.000000</xmpG:yellow>
                           <xmpG:black>50.000000</xmpG:black>
                        </rdf:li>
                        <rdf:li rdf:parseType="Resource">
                           <xmpG:swatchName>C=50 M=70 Y=80 K=70</xmpG:swatchName>
                           <xmpG:mode>CMYK</xmpG:mode>
                           <xmpG:type>PROCESS</xmpG:type>
                           <xmpG:cyan>50.000000</xmpG:cyan>
                           <xmpG:magenta>70.000000</xmpG:magenta>
                           <xmpG:yellow>80.000000</xmpG:yellow>
                           <xmpG:black>70.000000</xmpG:black>
                        </rdf:li>
                     </rdf:Seq>
                  </xmpG:Colorants>
               </rdf:li>
               <rdf:li rdf:parseType="Resource">
                  <xmpG:groupName>Grays</xmpG:groupName>
                  <xmpG:groupType>1</xmpG:groupType>
                  <xmpG:Colorants>
                     <rdf:Seq>
                        <rdf:li rdf:parseType="Resource">
                           <xmpG:swatchName>C=0 M=0 Y=0 K=100</xmpG:swatchName>
                           <xmpG:mode>CMYK</xmpG:mode>
                           <xmpG:type>PROCESS</xmpG:type>
                           <xmpG:cyan>0.000000</xmpG:cyan>
                           <xmpG:magenta>0.000000</xmpG:magenta>
                           <xmpG:yellow>0.000000</xmpG:yellow>
                           <xmpG:black>100.000000</xmpG:black>
                        </rdf:li>
                        <rdf:li rdf:parseType="Resource">
                           <xmpG:swatchName>C=0 M=0 Y=0 K=90</xmpG:swatchName>
                           <xmpG:mode>CMYK</xmpG:mode>
                           <xmpG:type>PROCESS</xmpG:type>
                           <xmpG:cyan>0.000000</xmpG:cyan>
                           <xmpG:magenta>0.000000</xmpG:magenta>
                           <xmpG:yellow>0.000000</xmpG:yellow>
                           <xmpG:black>89.999400</xmpG:black>
                        </rdf:li>
                        <rdf:li rdf:parseType="Resource">
                           <xmpG:swatchName>C=0 M=0 Y=0 K=80</xmpG:swatchName>
                           <xmpG:mode>CMYK</xmpG:mode>
                           <xmpG:type>PROCESS</xmpG:type>
                           <xmpG:cyan>0.000000</xmpG:cyan>
                           <xmpG:magenta>0.000000</xmpG:magenta>
                           <xmpG:yellow>0.000000</xmpG:yellow>
                           <xmpG:black>79.998800</xmpG:black>
                        </rdf:li>
                        <rdf:li rdf:parseType="Resource">
                           <xmpG:swatchName>C=0 M=0 Y=0 K=70</xmpG:swatchName>
                           <xmpG:mode>CMYK</xmpG:mode>
                           <xmpG:type>PROCESS</xmpG:type>
                           <xmpG:cyan>0.000000</xmpG:cyan>
                           <xmpG:magenta>0.000000</xmpG:magenta>
                           <xmpG:yellow>0.000000</xmpG:yellow>
                           <xmpG:black>69.999700</xmpG:black>
                        </rdf:li>
                        <rdf:li rdf:parseType="Resource">
                           <xmpG:swatchName>C=0 M=0 Y=0 K=60</xmpG:swatchName>
                           <xmpG:mode>CMYK</xmpG:mode>
                           <xmpG:type>PROCESS</xmpG:type>
                           <xmpG:cyan>0.000000</xmpG:cyan>
                           <xmpG:magenta>0.000000</xmpG:magenta>
                           <xmpG:yellow>0.000000</xmpG:yellow>
                           <xmpG:black>59.999100</xmpG:black>
                        </rdf:li>
                        <rdf:li rdf:parseType="Resource">
                           <xmpG:swatchName>C=0 M=0 Y=0 K=50</xmpG:swatchName>
                           <xmpG:mode>CMYK</xmpG:mode>
                           <xmpG:type>PROCESS</xmpG:type>
                           <xmpG:cyan>0.000000</xmpG:cyan>
                           <xmpG:magenta>0.000000</xmpG:magenta>
                           <xmpG:yellow>0.000000</xmpG:yellow>
                           <xmpG:black>50.000000</xmpG:black>
                        </rdf:li>
                        <rdf:li rdf:parseType="Resource">
                           <xmpG:swatchName>C=0 M=0 Y=0 K=40</xmpG:swatchName>
                           <xmpG:mode>CMYK</xmpG:mode>
                           <xmpG:type>PROCESS</xmpG:type>
                           <xmpG:cyan>0.000000</xmpG:cyan>
                           <xmpG:magenta>0.000000</xmpG:magenta>
                           <xmpG:yellow>0.000000</xmpG:yellow>
                           <xmpG:black>39.999400</xmpG:black>
                        </rdf:li>
                        <rdf:li rdf:parseType="Resource">
                           <xmpG:swatchName>C=0 M=0 Y=0 K=30</xmpG:swatchName>
                           <xmpG:mode>CMYK</xmpG:mode>
                           <xmpG:type>PROCESS</xmpG:type>
                           <xmpG:cyan>0.000000</xmpG:cyan>
                           <xmpG:magenta>0.000000</xmpG:magenta>
                           <xmpG:yellow>0.000000</xmpG:yellow>
                           <xmpG:black>29.998800</xmpG:black>
                        </rdf:li>
                        <rdf:li rdf:parseType="Resource">
                           <xmpG:swatchName>C=0 M=0 Y=0 K=20</xmpG:swatchName>
                           <xmpG:mode>CMYK</xmpG:mode>
                           <xmpG:type>PROCESS</xmpG:type>
                           <xmpG:cyan>0.000000</xmpG:cyan>
                           <xmpG:magenta>0.000000</xmpG:magenta>
                           <xmpG:yellow>0.000000</xmpG:yellow>
                           <xmpG:black>19.999700</xmpG:black>
                        </rdf:li>
                        <rdf:li rdf:parseType="Resource">
                           <xmpG:swatchName>C=0 M=0 Y=0 K=10</xmpG:swatchName>
                           <xmpG:mode>CMYK</xmpG:mode>
                           <xmpG:type>PROCESS</xmpG:type>
                           <xmpG:cyan>0.000000</xmpG:cyan>
                           <xmpG:magenta>0.000000</xmpG:magenta>
                           <xmpG:yellow>0.000000</xmpG:yellow>
                           <xmpG:black>9.999100</xmpG:black>
                        </rdf:li>
                        <rdf:li rdf:parseType="Resource">
                           <xmpG:swatchName>C=0 M=0 Y=0 K=5</xmpG:swatchName>
                           <xmpG:mode>CMYK</xmpG:mode>
                           <xmpG:type>PROCESS</xmpG:type>
                           <xmpG:cyan>0.000000</xmpG:cyan>
                           <xmpG:magenta>0.000000</xmpG:magenta>
                           <xmpG:yellow>0.000000</xmpG:yellow>
                           <xmpG:black>4.998800</xmpG:black>
                        </rdf:li>
                     </rdf:Seq>
                  </xmpG:Colorants>
               </rdf:li>
               <rdf:li rdf:parseType="Resource">
                  <xmpG:groupName>Brights</xmpG:groupName>
                  <xmpG:groupType>1</xmpG:groupType>
                  <xmpG:Colorants>
                     <rdf:Seq>
                        <rdf:li rdf:parseType="Resource">
                           <xmpG:swatchName>C=0 M=100 Y=100 K=0</xmpG:swatchName>
                           <xmpG:mode>CMYK</xmpG:mode>
                           <xmpG:type>PROCESS</xmpG:type>
                           <xmpG:cyan>0.000000</xmpG:cyan>
                           <xmpG:magenta>100.000000</xmpG:magenta>
                           <xmpG:yellow>100.000000</xmpG:yellow>
                           <xmpG:black>0.000000</xmpG:black>
                        </rdf:li>
                        <rdf:li rdf:parseType="Resource">
                           <xmpG:swatchName>C=0 M=75 Y=100 K=0</xmpG:swatchName>
                           <xmpG:mode>CMYK</xmpG:mode>
                           <xmpG:type>PROCESS</xmpG:type>
                           <xmpG:cyan>0.000000</xmpG:cyan>
                           <xmpG:magenta>75.000000</xmpG:magenta>
                           <xmpG:yellow>100.000000</xmpG:yellow>
                           <xmpG:black>0.000000</xmpG:black>
                        </rdf:li>
                        <rdf:li rdf:parseType="Resource">
                           <xmpG:swatchName>C=0 M=10 Y=95 K=0</xmpG:swatchName>
                           <xmpG:mode>CMYK</xmpG:mode>
                           <xmpG:type>PROCESS</xmpG:type>
                           <xmpG:cyan>0.000000</xmpG:cyan>
                           <xmpG:magenta>10.000000</xmpG:magenta>
                           <xmpG:yellow>95.000000</xmpG:yellow>
                           <xmpG:black>0.000000</xmpG:black>
                        </rdf:li>
                        <rdf:li rdf:parseType="Resource">
                           <xmpG:swatchName>C=85 M=10 Y=100 K=0</xmpG:swatchName>
                           <xmpG:mode>CMYK</xmpG:mode>
                           <xmpG:type>PROCESS</xmpG:type>
                           <xmpG:cyan>85.000000</xmpG:cyan>
                           <xmpG:magenta>10.000000</xmpG:magenta>
                           <xmpG:yellow>100.000000</xmpG:yellow>
                           <xmpG:black>0.000000</xmpG:black>
                        </rdf:li>
                        <rdf:li rdf:parseType="Resource">
                           <xmpG:swatchName>C=100 M=90 Y=0 K=0</xmpG:swatchName>
                           <xmpG:mode>CMYK</xmpG:mode>
                           <xmpG:type>PROCESS</xmpG:type>
                           <xmpG:cyan>100.000000</xmpG:cyan>
                           <xmpG:magenta>90.000000</xmpG:magenta>
                           <xmpG:yellow>0.000000</xmpG:yellow>
                           <xmpG:black>0.000000</xmpG:black>
                        </rdf:li>
                        <rdf:li rdf:parseType="Resource">
                           <xmpG:swatchName>C=60 M=90 Y=0 K=0</xmpG:swatchName>
                           <xmpG:mode>CMYK</xmpG:mode>
                           <xmpG:type>PROCESS</xmpG:type>
                           <xmpG:cyan>60.000000</xmpG:cyan>
                           <xmpG:magenta>90.000000</xmpG:magenta>
                           <xmpG:yellow>0.003100</xmpG:yellow>
                           <xmpG:black>0.003100</xmpG:black>
                        </rdf:li>
                     </rdf:Seq>
                  </xmpG:Colorants>
               </rdf:li>
            </rdf:Seq>
         </xmpTPg:SwatchGroups>
      </rdf:Description>
   </rdf:RDF>
</x:xmpmeta>
                                                                                                    
                                                                                                    
                                                                                                    
                                                                                                    
                                                                                                    
                                                                                                    
                                                                                                    
                                                                                                    
                                                                                                    
                                                                                                    
                                                                                                    
                                                                                                    
                                                                                                    
                                                                                                    
                                                                                                    
                                                                                                    
                                                                                                    
                                                                                                    
                                                                                                    
                                                                                                    
                           
<?xpacket end="w"?>
	</metadata>
<g>
	<g>
		<path d="M182.9362,606.1588c-3.7633-1.8811-7.526-3.136-11.9163-3.7625c-31.3581-1.8813-48.9185-3.1364-52.0548-3.7639
			c0.6275-0.6264,7.526-12.5432,21.3237-34.4933c6.9296-11.5493,13.8588-23.2695,20.7881-34.983h-82.723
			c-18.6891,37.1452-29.0682,60.3908-30.8855,69.4763c-1.8814,10.6616,1.2544,18.8157,10.6619,23.2048
			c16.9335,5.6452,38.2572,8.1541,63.3436,7.5266c24.4595-0.6275,42.6474-1.8814,53.9362-5.0178
			c5.6447-1.2539,9.4074-3.1353,11.2888-5.6441c1.8819-2.5089,2.5089-5.0178,1.8819-7.5266
			C187.9534,609.2941,186.072,607.4127,182.9362,606.1588z"/>
		<path d="M214.2943,250.5563c-11.9157-9.4069-25.0865-16.9335-40.7655-21.3237s-33.24-5.6441-52.0548-3.7628
			c-19.4423,2.5089-38.2572,8.153-56.4445,17.561c-20.0693,10.0344-33.8669,25.0865-40.766,45.7827
			c-7.526,20.6962-8.153,40.7661-2.5089,61.4623c5.6447,20.6962,16.3065,38.2572,30.7311,52.6818
			c8.1535,8.153,20.0693,11.2893,34.4944,9.408c5.0172-0.6275,8.153-3.7638,10.0344-8.1541c0-0.6264-2.5083-4.3892-8.153-11.2883
			s-10.6618-17.5609-14.4246-31.9856c-5.6447-22.5776-4.3902-43.2749,5.0172-62.7161
			c9.4074-18.8148,20.6962-30.1042,33.8669-34.4944c13.1702-4.3902,23.2051-3.7628,31.3581,1.2539
			c16.9335,19.4423,22.5781,43.2749,16.3065,72.7516c-5.2506,26.252-16.3285,56.8766-32.6502,92.123h84.8549
			c1.6137-3.6725,3.2354-7.4113,4.8672-11.2184c13.1702-30.7317,21.3232-57.6995,25.0865-80.9046
			c3.1358-18.1873,1.8814-34.4944-3.7633-50.1729C233.7366,272.5075,225.5836,259.9642,214.2943,250.5563z"/>
		<path d="M400.5613,578.5638c-8.153,18.8149-16.9335,28.2225-25.0865,27.595c-1.8814,0-3.7633-0.6272-5.6447-1.8811
			c-1.8814-1.2549-3.7628-3.1363-5.6441-6.2716c-1.8819-2.5089-3.7633-5.0177-5.0177-6.8991
			c-1.8814-1.8813-3.1358-5.6441-5.0172-10.0344c-1.8814-4.3902-3.1358-6.899-3.7628-8.7805
			c-0.6275-1.8813-1.8819-4.3903-3.7633-8.7805l-2.5083-6.8991c-2.824-8.4719-5.0201-17.5718-6.6667-27.4564h-63.858
			c2.5017,7.644,5.3037,15.1331,8.4349,22.4398c12.5432,30.7306,28.2228,52.6818,47.6646,65.8522
			c11.9163,9.4069,26.9684,13.7971,45.1558,12.5432c18.1879-0.6274,33.24-8.1541,45.1562-22.5787
			c16.6098-19.2047,28.9115-45.3047,37.285-78.2565h-42.4639C410.9771,549.0906,406.2241,565.4955,400.5613,578.5638z"/>
		<path d="M449.4804,298.8478c-5.0172-13.1696-11.2893-26.9678-19.4423-42.6463c-12.5432-21.9512-34.4939-32.6131-65.852-31.3592
			c-26.9684,1.255-48.919,13.1707-66.48,36.3758c-18.1874,23.2051-29.4767,51.4279-34.4939,85.2948
			c-4.5143,27.085-6.2129,54.9739-5.4321,83.3425h76.8151c0.8809-13.6555,2.4896-30.4604,4.5039-50.1031
			c3.7633-38.8847,10.6618-70.2427,20.6967-93.4478c0.627-0.6264,1.2545-1.8814,1.8814-3.7628
			c0.627-1.8814,0.627-3.1353,1.2545-4.3902c0.6269-0.6275,1.2544-1.8814,1.8813-3.7628c0.627-1.2539,1.2545-2.5089,1.8814-3.1364
			c0.6275-0.6264,1.2545-1.8814,2.5089-3.1353c0.627-0.6275,1.8814-1.255,2.5083-1.8814c0.6275,0,1.8819,0,3.7633,0
			c1.2544,0,2.5083,0,3.7628,0.6264c10.6619,4.3902,19.4423,21.3237,26.9684,51.4279c7.526,30.7317,12.5432,57.6995,14.4246,80.9046
			c0.9342,10.2763,1.5829,20.4958,1.9272,30.6607h47.9518c0.1229-3.1364,0.2227-6.2507,0.2944-9.337
			c0.627-26.9678-1.8819-50.174-6.2716-70.8702C459.5147,328.952,454.4976,312.0185,449.4804,298.8478z"/>
		<path d="M648.2874,606.1588c-3.7633-1.8811-7.5261-3.136-11.9163-3.7625c-31.358-1.8813-48.9185-3.1364-52.0548-3.7639
			c0.6275-0.6264,7.5261-12.5432,21.3237-34.4933c6.9295-11.5493,13.8588-23.2695,20.7881-34.983h-82.7229
			c-18.6892,37.1452-29.0683,60.3908-30.8856,69.4763c-1.8813,10.6616,1.2545,18.8157,10.6619,23.2048
			c16.9335,5.6452,38.2572,8.1541,63.3436,7.5266c24.4595-0.6275,42.6474-1.8814,53.9362-5.0178
			c5.6447-1.2539,9.4074-3.1353,11.2888-5.6441c1.8819-2.5089,2.5089-5.0178,1.8819-7.5266
			C653.3046,609.2941,651.4232,607.4127,648.2874,606.1588z"/>
		<path d="M679.6455,250.5563c-11.9158-9.4069-25.0865-16.9335-40.7655-21.3237c-15.6791-4.3902-33.24-5.6441-52.0549-3.7628
			c-19.4423,2.5089-38.2571,8.153-56.4445,17.561c-20.0693,10.0344-33.8669,25.0865-40.7661,45.7827
			c-7.526,20.6962-8.153,40.7661-2.5089,61.4623c5.6447,20.6962,16.3065,38.2572,30.7311,52.6818
			c8.1535,8.153,20.0693,11.2893,34.4944,9.408c5.0172-0.6275,8.153-3.7638,10.0344-8.1541c0-0.6264-2.5084-4.3892-8.153-11.2883
			s-10.6619-17.5609-14.4246-31.9856c-5.6447-22.5776-4.3902-43.2749,5.0172-62.7161
			c9.4074-18.8148,20.6962-30.1042,33.8669-34.4944c13.1702-4.3902,23.2051-3.7628,31.358,1.2539
			c16.9335,19.4423,22.5782,43.2749,16.3065,72.7516c-5.2505,26.252-16.3286,56.8766-32.6501,92.123h84.8549
			c1.6138-3.6725,3.2355-7.4113,4.8672-11.2184c13.1702-30.7317,21.3232-57.6995,25.0865-80.9046
			c3.1358-18.1873,1.8813-34.4944-3.7633-50.1729C699.0878,272.5075,690.9348,259.9642,679.6455,250.5563z"/>
		<path d="M841.453,400.4486c0.6275-88.4301-0.6269-139.858-2.5083-153.0276c-1.2544-8.7805-5.6447-14.4257-12.5432-17.561
			c-8.1536-4.3902-18.8154-5.6441-30.7311-4.3902c-11.9163,1.8814-18.8154,6.2716-20.6968,13.1707
			c-1.2544,6.8991-9.4074,19.4423-23.832,37.6297c-5.6447,6.8991-11.9163,16.9335-18.8148,28.8492
			c-7.5261,11.9168-10.6619,20.0698-10.0349,23.8326c1.8813,3.1364,6.8991,5.0177,15.0521,5.0177
			c6.8986,0,16.306-8.7805,28.8492-26.3414l-1.2539,27.5953c-1.231,17.8483-1.2528,49.5957,0.5247,94.6318h75.8723
			C841.3445,420.2841,841.3818,410.4898,841.453,400.4486z"/>
		<path d="M845.8433,610.5491c-1.42-23.2877-2.5814-50.4472-3.3704-81.3929h-72.0689c1.2947,18.4266,2.8145,37.4048,4.5696,56.9331
			c0.6275,10.0355,1.2545,16.3071,1.8814,18.8148c0,3.1361,0.6274,7.5264,2.5089,13.1705
			c1.2545,5.6452,3.1358,10.0344,6.2716,11.9168c3.1358,2.5078,6.8991,4.3903,11.9163,6.2716
			c8.153,3.1353,16.9335,3.7628,26.3409,2.5078c8.7805-1.2539,15.0521-3.7628,18.1879-8.153
			C845.2163,626.2276,846.4702,619.9559,845.8433,610.5491z"/>
	</g>
	<g>
		<g>
			<path d="M86.7673,447.0157c0-0.883-0.4111-1.5225-1.2332-1.9183c-0.1827-0.0913-3.5474-0.137-10.0942-0.137
				c-12.0283,0-21.8783-0.0609-29.5517-0.1827c-1.3094,0-2.1239,0.0685-2.4436,0.2055s-0.5709,0.373-0.7536,0.708
				c-0.1827,0.3349-0.2741,0.6699-0.2741,1.0049c0,1.492,0.5481,2.3599,1.6443,2.6035c0.3953,0.0609,2.8618,0.137,7.3994,0.2284
				c3.0445,0.0913,5.5109,0.137,7.3994,0.137c-0.9135,14.4942-1.3703,26.6894-1.3703,36.5857c0,7.4602,0.2436,15.2859,0.7308,23.477
				c0.0609,0.9744,0.6694,1.6747,1.827,2.101c1.3088,0.5177,2.6644,0.7765,4.0651,0.7765c1.7052,0,3.4555-0.3958,5.2526-1.1875
				c0.9744-0.5786,1.5073-1.1266,1.5986-1.6443c0-2.2228-0.0158-3.8976-0.0457-5.0242
				c-0.0614-13.7939-0.0914-32.1704-0.0914-55.1298c8.5255-0.1523,13.261-0.3045,14.2049-0.4568
				C86.1887,448.9492,86.7673,448.2337,86.7673,447.0157z"/>
			<path d="M164.3845,446.2392c-1.218,0-2.101,1.3094-2.6492,3.928c-6.1509,22.9898-9.9115,37.2708-11.2817,42.8432
				c-2.8019-10.1703-5.8312-19.5032-9.0893-27.9988c-3.7155-9.5309-6.0905-15.3468-7.1253-17.4478
				c-0.3355-0.944-0.8836-1.5834-1.6443-1.9184c-0.4872-0.1827-1.0962-0.274-1.827-0.274c-2.5883,0-4.2935,0.6547-5.1156,1.964
				c-0.4268,0.8831-0.8222,2.1163-1.1875,3.6997c-4.6893,17.1434-8.3743,31.1351-11.0534,41.9753
				c-2.101-7.7343-4.4152-15.088-6.9426-22.061c-2.5279-6.9731-4.735-12.7053-6.6229-17.1966
				c-1.8884-4.4914-2.9232-6.8893-3.1059-7.1938c-0.6699-0.7917-1.6601-1.1876-2.9689-1.1876c-0.3959,0-0.8069,0.0305-1.2332,0.0913
				c-1.9184,0.3045-3.5327,0.9592-4.8415,1.9641c-1.3094,1.0048-1.964,2.0401-1.964,3.1059c0,0.3045,0.0457,0.6242,0.137,0.9592
				c3.958,10.7488,7.3994,20.8278,10.3226,30.2368c2.9232,9.4091,5.7703,19.1835,8.5412,29.3234
				c0.3654,1.2789,1.7357,1.9184,4.1108,1.9184c2.3137,0,3.8063-0.3654,4.4762-1.0962c0.5481-0.5786,0.9135-1.4312,1.0962-2.5578
				c1.7966-8.0084,4.5974-19.3814,8.4042-34.1193l3.5627-14.1136c5.785,16.6561,10.9163,33.3123,15.3925,49.9684
				c0.4263,1.2789,1.7966,1.9184,4.1107,1.9184c2.3137,0,3.8063-0.3654,4.4762-1.0962c0.5481-0.5786,0.9135-1.4312,1.0962-2.5578
				c1.7966-8.0084,4.5974-19.3814,8.4042-34.1193c4.3543-16.8693,6.5315-25.8673,6.5315-26.9939
				C166.3942,447.0157,165.7243,446.361,164.3845,446.2392z"/>
			<path d="M208.4153,445.8738c-0.2132-0.1522-1.1266-0.2284-2.7405-0.2284c-1.827,0.0305-3.7155,0.0457-5.6637,0.0457h-7.2166
				c-7.7952-0.0609-12.9108-0.1218-15.3468-0.1827c-0.8221,0-1.5377,0.0761-2.1467,0.2284
				c-0.8836,0.2436-1.5834,0.9211-2.1011,2.0326c-0.5182,1.1114-0.9135,2.9612-1.1875,5.5495
				c-1.0049,11.2665-1.5073,21.8174-1.5073,31.6528c0,15.8949,0.441,25.0451,1.3246,27.4507
				c0.304,0.8831,0.7379,1.4083,1.3017,1.5758c0.5633,0.1674,1.5143,0.2512,2.8547,0.2512
				c6.9426,0.1523,11.571,0.2284,13.8852,0.2284c2.2838,0,6.9122-0.137,13.8852-0.4111c1.6742-0.0609,2.6644-0.1522,2.9689-0.274
				c0.6395-0.4263,0.9592-1.0657,0.9592-1.9183c0-1.4616-0.7009-2.1924-2.101-2.1924l-11.5558,0.0913
				c-2.7405,0-4.8573-0.0152-6.3488-0.0457c-0.944-0.0305-2.1168-0.0457-3.517-0.0457c-0.3355-5.2679-0.5329-10.4748-0.5938-15.6208
				c1.8879,0,4.5675-0.0533,8.0388-0.1599c3.4713-0.1066,5.2526-0.1751,5.344-0.2055c0.7003-0.2436,1.0505-0.9439,1.0505-2.101
				c0-1.3094-0.5024-2.0249-1.5073-2.1467h-1.2332c-4.0194-0.0913-7.9474-0.137-11.7841-0.137
				c0-17.2956,0.304-30.1607,0.9135-38.5954c0-0.2131,0.2284-0.3197,0.6851-0.3197h1.2332c0.609,0.0304,1.9483,0.0457,4.0194,0.0457
				c3.4099,0,9.3019-0.1674,17.6762-0.5024c0.9434-0.2436,1.4159-0.9592,1.4159-2.1467
				C209.4201,446.9091,209.0846,446.2697,208.4153,445.8738z"/>
			<path d="M250.893,446.2392c-0.5786,0-1.081,0.1979-1.5073,0.5938c-1.0353,1.4007-1.8727,5.2298-2.5121,11.4872
				s-1.112,12.8804-1.4159,19.8687c-0.3045,6.9883-0.5182,12.2942-0.6395,15.9177c0,0.8831-0.0158,1.553-0.0457,2.0097
				c-5.3896-14.8596-11.0534-28.7144-16.9911-41.5643c-2.3142-5.0851-3.791-7.9627-4.4305-8.6326
				c-0.4268-0.3958-0.8678-0.5938-1.3246-0.5938c-0.6395-0.0609-1.249-0.0913-1.827-0.0913c-1.9488,0-3.4256,0.3654-4.4305,1.0962
				c-2.0712,1.4921-3.1059,3.9737-3.1059,7.445l-0.0913,1.0505c-1.4921,14.2202-2.2381,27.9226-2.2381,41.1075
				c0,9.3786,0.4263,14.6465,1.2789,15.8035c0.4867,0.4263,0.9891,0.6394,1.5073,0.6394c1.3703,0,2.1467-0.8221,2.3294-2.4664
				c-0.2132-1.2789-0.3197-7.0187-0.3197-17.2195c0-8.5869,0.4567-19.5793,1.3702-32.9774
				c4.5974,11.571,8.5565,21.7261,11.8755,30.4652c2.5274,6.6077,5.3135,13.7786,8.3585,21.5129
				c0.3349,0.9744,1.1419,1.492,2.4208,1.5529h0.5481c2.5877,0,4.7654-0.609,6.5315-1.827c0.8222-0.5481,1.423-1.0734,1.8042-1.5758
				c0.3806-0.5024,0.6318-1.2028,0.7536-2.101c0.1213-0.8983,0.2436-2.5654,0.3654-5.0014
				c0.4568-8.1302,0.7308-14.4485,0.8222-18.9551c0.0609-4.3239,0.2583-8.9675,0.5938-13.9309
				c0.335-4.9633,1.0658-11.8451,2.1924-20.6451l0.0457-0.5481c0-0.7308-0.1827-1.3094-0.5481-1.7357
				C251.8979,446.498,251.4411,446.2697,250.893,446.2392z"/>
			<path d="M297.8926,445.0973c-0.1827-0.0913-3.5474-0.137-10.0942-0.137c-12.0283,0-21.8783-0.0609-29.5517-0.1827
				c-1.3094,0-2.1239,0.0685-2.4436,0.2055c-0.3197,0.137-0.5709,0.373-0.7536,0.708c-0.1827,0.3349-0.274,0.6699-0.274,1.0049
				c0,1.492,0.5481,2.3599,1.6443,2.6035c0.3953,0.0609,2.8618,0.137,7.3994,0.2284c3.0444,0.0913,5.5109,0.137,7.3994,0.137
				c-0.9135,14.4942-1.3703,26.6894-1.3703,36.5857c0,7.4602,0.2436,15.2859,0.7308,23.477c0.0609,0.9744,0.6694,1.6747,1.827,2.101
				c1.3088,0.5177,2.6644,0.7765,4.0651,0.7765c1.7052,0,3.4555-0.3958,5.2526-1.1875c0.9744-0.5786,1.5073-1.1266,1.5986-1.6443
				c0-2.2228-0.0157-3.8976-0.0457-5.0242c-0.0615-13.7939-0.0914-32.1704-0.0914-55.1298
				c8.5255-0.1523,13.261-0.3045,14.205-0.4568c1.1571-0.2131,1.7356-0.9287,1.7356-2.1467
				C299.1258,446.1326,298.7148,445.4932,297.8926,445.0973z"/>
			<path d="M336.488,448.7057c-0.2441-1.3094-0.9668-2.0858-2.1696-2.3294c-1.2033-0.2436-2.1696-0.3654-2.9004-0.3654
				c-1.0049,0-2.0255,0.137-3.0602,0.4111c-1.827,0.4567-3.045,1.2637-3.654,2.4208c0.274,7.7038,0.4111,13.9918,0.4111,18.8638
				c0,4.3543-0.1218,8.663-0.3654,12.926c-1.9183,1.4312-3.6997,2.1467-5.344,2.1467c-1.0049,0-1.9488-0.274-2.8318-0.8221
				c-2.3452-1.4312-3.9438-4.537-4.7959-9.3177c-0.3355-2.2228-0.5024-4.5979-0.5024-7.1253c0-3.928,0.3654-9.1046,1.0962-15.5295
				c0.0914-0.5481,0.137-0.8983,0.137-1.0505c0-0.7003-0.51-1.3398-1.5301-1.9184c-1.0206-0.5785-2.094-0.9592-3.2201-1.1419
				c-1.1266-0.1827-2.0402-0.274-2.7405-0.274c-2.771,0-4.2021,0.472-4.2935,1.4159c-0.8836,4.1717-1.386,7.9475-1.5073,11.3274
				c-0.1218,2.8014-0.1827,4.5827-0.1827,5.344c0,4.0194,0.4111,7.8409,1.2332,11.4644c1.1876,4.6893,3.0983,8.1073,5.7322,10.254
				c2.6334,2.1467,5.5794,3.2201,8.8381,3.2201c3.2581,0,6.4097-0.8983,9.4547-2.6948
				c-1.0663,11.1751-3.5327,18.3614-7.3994,21.5586c-1.249,0.944-2.4969,1.4159-3.7453,1.4159
				c-0.6395,0-1.2637-0.1218-1.8727-0.3654c-1.8885-0.6699-3.4713-2.1315-4.7502-4.3848s-1.9945-4.9938-2.1467-8.2215
				c-0.0614-0.8831-0.5182-1.3246-1.3702-1.3246c-0.7009,0-1.1419,0.3654-1.3246,1.0962c-0.0913,1.0353-0.137,2.0249-0.137,2.9689
				c0,4.1412,0.9135,7.445,2.7405,9.9115c2.2223,3.0754,4.537,4.8492,6.9426,5.3211c2.405,0.472,4.2173,0.7079,5.4353,0.7079
				c2.405,0,4.8111-0.4872,7.2166-1.4616c3.8367-1.6443,6.7142-4.0194,8.6326-7.1253c1.9183-3.1059,3.2429-6.6534,3.9737-10.6423
				c1.0962-5.9986,1.6443-13.2001,1.6443-21.6043C338.1323,466.2905,337.5842,457.932,336.488,448.7057z"/>
		</g>
		<g>
			<path d="M410.7401,447.0157c0-0.883-0.4111-1.5225-1.2332-1.9183c-0.1827-0.0913-3.5475-0.137-10.0942-0.137
				c-12.0283,0-21.8783-0.0609-29.5517-0.1827c-1.3094,0-2.1239,0.0685-2.4436,0.2055s-0.571,0.373-0.7536,0.708
				c-0.1827,0.3349-0.274,0.6699-0.274,1.0049c0,1.492,0.5481,2.3599,1.6443,2.6035c0.3953,0.0609,2.8618,0.137,7.3994,0.2284
				c3.0445,0.0913,5.5109,0.137,7.3994,0.137c-0.9135,14.4942-1.3702,26.6894-1.3702,36.5857c0,7.4602,0.2436,15.2859,0.7308,23.477
				c0.0609,0.9744,0.6693,1.6747,1.827,2.101c1.3088,0.5177,2.6644,0.7765,4.0651,0.7765c1.7052,0,3.4555-0.3958,5.2526-1.1875
				c0.9744-0.5786,1.5073-1.1266,1.5986-1.6443c0-2.2228-0.0158-3.8976-0.0457-5.0242
				c-0.0614-13.7939-0.0913-32.1704-0.0913-55.1298c8.5255-0.1523,13.261-0.3045,14.2049-0.4568
				C410.1615,448.9492,410.7401,448.2337,410.7401,447.0157z"/>
			<path d="M488.3574,446.2392c-1.218,0-2.101,1.3094-2.6491,3.928c-6.1509,22.9898-9.9115,37.2708-11.2817,42.8432
				c-2.8019-10.1703-5.8312-19.5032-9.0893-27.9988c-3.7155-9.5309-6.0905-15.3468-7.1253-17.4478
				c-0.3355-0.944-0.8836-1.5834-1.6443-1.9184c-0.4872-0.1827-1.0962-0.274-1.827-0.274c-2.5882,0-4.2934,0.6547-5.1156,1.964
				c-0.4268,0.8831-0.8221,2.1163-1.1875,3.6997c-4.6893,17.1434-8.3743,31.1351-11.0534,41.9753
				c-2.101-7.7343-4.4153-15.088-6.9426-22.061c-2.5279-6.9731-4.735-12.7053-6.6229-17.1966
				c-1.8885-4.4914-2.9232-6.8893-3.1059-7.1938c-0.6699-0.7917-1.6601-1.1876-2.9689-1.1876c-0.3959,0-0.8069,0.0305-1.2332,0.0913
				c-1.9183,0.3045-3.5327,0.9592-4.8416,1.9641c-1.3094,1.0048-1.964,2.0401-1.964,3.1059c0,0.3045,0.0457,0.6242,0.137,0.9592
				c3.9579,10.7488,7.3994,20.8278,10.3225,30.2368c2.9232,9.4091,5.7703,19.1835,8.5412,29.3234
				c0.3654,1.2789,1.7357,1.9184,4.1108,1.9184c2.3136,0,3.8062-0.3654,4.4761-1.0962c0.5481-0.5786,0.9135-1.4312,1.0962-2.5578
				c1.7966-8.0084,4.5974-19.3814,8.4042-34.1193l3.5627-14.1136c5.785,16.6561,10.9164,33.3123,15.3925,49.9684
				c0.4263,1.2789,1.7965,1.9184,4.1107,1.9184c2.3137,0,3.8062-0.3654,4.4762-1.0962c0.5481-0.5786,0.9135-1.4312,1.0962-2.5578
				c1.7965-8.0084,4.5974-19.3814,8.4042-34.1193c4.3543-16.8693,6.5315-25.8673,6.5315-26.9939
				C490.3671,447.0157,489.6972,446.361,488.3574,446.2392z"/>
			<path d="M532.3881,445.8738c-0.2131-0.1522-1.1266-0.2284-2.7405-0.2284c-1.827,0.0305-3.7155,0.0457-5.6637,0.0457h-7.2167
				c-7.7952-0.0609-12.9108-0.1218-15.3468-0.1827c-0.8221,0-1.5377,0.0761-2.1467,0.2284
				c-0.8836,0.2436-1.5834,0.9211-2.101,2.0326c-0.5182,1.1114-0.9135,2.9612-1.1875,5.5495
				c-1.0049,11.2665-1.5073,21.8174-1.5073,31.6528c0,15.8949,0.441,25.0451,1.3246,27.4507
				c0.304,0.8831,0.7379,1.4083,1.3017,1.5758c0.5633,0.1674,1.5143,0.2512,2.8547,0.2512
				c6.9426,0.1523,11.571,0.2284,13.8852,0.2284c2.2838,0,6.9122-0.137,13.8853-0.4111c1.6742-0.0609,2.6644-0.1522,2.9689-0.274
				c0.6394-0.4263,0.9592-1.0657,0.9592-1.9183c0-1.4616-0.7009-2.1924-2.1011-2.1924l-11.5558,0.0913
				c-2.7405,0-4.8573-0.0152-6.3488-0.0457c-0.9439-0.0305-2.1168-0.0457-3.517-0.0457
				c-0.3355-5.2679-0.5329-10.4748-0.5938-15.6208c1.8879,0,4.5675-0.0533,8.0388-0.1599c3.4713-0.1066,5.2526-0.1751,5.344-0.2055
				c0.7004-0.2436,1.0505-0.9439,1.0505-2.101c0-1.3094-0.5024-2.0249-1.5073-2.1467h-1.2332
				c-4.0194-0.0913-7.9475-0.137-11.7842-0.137c0-17.2956,0.304-30.1607,0.9135-38.5954c0-0.2131,0.2284-0.3197,0.6852-0.3197
				h1.2332c0.609,0.0304,1.9482,0.0457,4.0194,0.0457c3.4099,0,9.3019-0.1674,17.6762-0.5024
				c0.9434-0.2436,1.416-0.9592,1.416-2.1467C533.393,446.9091,533.0575,446.2697,532.3881,445.8738z"/>
			<path d="M574.8659,446.2392c-0.5786,0-1.081,0.1979-1.5073,0.5938c-1.0353,1.4007-1.8727,5.2298-2.5121,11.4872
				s-1.1119,12.8804-1.4159,19.8687c-0.3045,6.9883-0.5182,12.2942-0.6395,15.9177c0,0.8831-0.0158,1.553-0.0457,2.0097
				c-5.3897-14.8596-11.0534-28.7144-16.9911-41.5643c-2.3142-5.0851-3.791-7.9627-4.4305-8.6326
				c-0.4268-0.3958-0.8678-0.5938-1.3246-0.5938c-0.6394-0.0609-1.249-0.0913-1.827-0.0913c-1.9488,0-3.4257,0.3654-4.4305,1.0962
				c-2.0712,1.4921-3.1059,3.9737-3.1059,7.445l-0.0914,1.0505c-1.4921,14.2202-2.238,27.9226-2.238,41.1075
				c0,9.3786,0.4263,14.6465,1.2789,15.8035c0.4866,0.4263,0.9891,0.6394,1.5073,0.6394c1.3702,0,2.1467-0.8221,2.3295-2.4664
				c-0.2132-1.2789-0.3198-7.0187-0.3198-17.2195c0-8.5869,0.4568-19.5793,1.3702-32.9774
				c4.5974,11.571,8.5565,21.7261,11.8755,30.4652c2.5273,6.6077,5.3135,13.7786,8.3585,21.5129
				c0.335,0.9744,1.1418,1.492,2.4208,1.5529h0.5481c2.5877,0,4.7654-0.609,6.5315-1.827c0.8221-0.5481,1.423-1.0734,1.8042-1.5758
				c0.3806-0.5024,0.6318-1.2028,0.7536-2.101c0.1213-0.8983,0.2437-2.5654,0.3654-5.0014
				c0.4567-8.1302,0.7308-14.4485,0.8221-18.9551c0.0609-4.3239,0.2583-8.9675,0.5938-13.9309
				c0.3349-4.9633,1.0657-11.8451,2.1924-20.6451l0.0457-0.5481c0-0.7308-0.1827-1.3094-0.5481-1.7357
				S575.414,446.2697,574.8659,446.2392z"/>
			<path d="M621.8655,445.0973c-0.1827-0.0913-3.5474-0.137-10.0942-0.137c-12.0283,0-21.8783-0.0609-29.5517-0.1827
				c-1.3094,0-2.1239,0.0685-2.4437,0.2055c-0.3197,0.137-0.5709,0.373-0.7536,0.708c-0.1827,0.3349-0.274,0.6699-0.274,1.0049
				c0,1.492,0.5481,2.3599,1.6443,2.6035c0.3953,0.0609,2.8618,0.137,7.3994,0.2284c3.0444,0.0913,5.5109,0.137,7.3994,0.137
				c-0.9135,14.4942-1.3702,26.6894-1.3702,36.5857c0,7.4602,0.2436,15.2859,0.7308,23.477c0.0609,0.9744,0.6694,1.6747,1.827,2.101
				c1.3088,0.5177,2.6644,0.7765,4.0651,0.7765c1.7052,0,3.4556-0.3958,5.2526-1.1875c0.9744-0.5786,1.5073-1.1266,1.5986-1.6443
				c0-2.2228-0.0157-3.8976-0.0457-5.0242c-0.0615-13.7939-0.0914-32.1704-0.0914-55.1298
				c8.5255-0.1523,13.261-0.3045,14.205-0.4568c1.1571-0.2131,1.7356-0.9287,1.7356-2.1467
				C623.0987,446.1326,622.6876,445.4932,621.8655,445.0973z"/>
			<path d="M660.4609,448.7057c-0.2441-1.3094-0.9668-2.0858-2.1696-2.3294c-1.2033-0.2436-2.1696-0.3654-2.9004-0.3654
				c-1.0048,0-2.0255,0.137-3.0602,0.4111c-1.827,0.4567-3.045,1.2637-3.654,2.4208c0.274,7.7038,0.4111,13.9918,0.4111,18.8638
				c0,4.3543-0.1218,8.663-0.3654,12.926c-1.9183,1.4312-3.6997,2.1467-5.344,2.1467c-1.0048,0-1.9488-0.274-2.8318-0.8221
				c-2.3452-1.4312-3.9438-4.537-4.7958-9.3177c-0.3355-2.2228-0.5024-4.5979-0.5024-7.1253c0-3.928,0.3654-9.1046,1.0962-15.5295
				c0.0914-0.5481,0.137-0.8983,0.137-1.0505c0-0.7003-0.5101-1.3398-1.5301-1.9184c-1.0206-0.5785-2.094-0.9592-3.2201-1.1419
				c-1.1266-0.1827-2.0402-0.274-2.7405-0.274c-2.7709,0-4.2021,0.472-4.2935,1.4159c-0.8835,4.1717-1.386,7.9475-1.5073,11.3274
				c-0.1218,2.8014-0.1827,4.5827-0.1827,5.344c0,4.0194,0.4111,7.8409,1.2332,11.4644c1.1876,4.6893,3.0983,8.1073,5.7322,10.254
				c2.6334,2.1467,5.5794,3.2201,8.8381,3.2201c3.2582,0,6.4097-0.8983,9.4548-2.6948
				c-1.0663,11.1751-3.5328,18.3614-7.3994,21.5586c-1.249,0.944-2.4969,1.4159-3.7454,1.4159
				c-0.6395,0-1.2637-0.1218-1.8727-0.3654c-1.8885-0.6699-3.4713-2.1315-4.7502-4.3848c-1.2789-2.2533-1.9944-4.9938-2.1467-8.2215
				c-0.0615-0.8831-0.5182-1.3246-1.3703-1.3246c-0.7009,0-1.1418,0.3654-1.3246,1.0962c-0.0913,1.0353-0.137,2.0249-0.137,2.9689
				c0,4.1412,0.9135,7.445,2.7405,9.9115c2.2223,3.0754,4.537,4.8492,6.9426,5.3211c2.405,0.472,4.2173,0.7079,5.4354,0.7079
				c2.405,0,4.8111-0.4872,7.2166-1.4616c3.8367-1.6443,6.7142-4.0194,8.6326-7.1253c1.9183-3.1059,3.2429-6.6534,3.9737-10.6423
				c1.0962-5.9986,1.6443-13.2001,1.6443-21.6043C662.1052,466.2905,661.5571,457.932,660.4609,448.7057z"/>
		</g>
		<g>
			<path d="M730.2295,446.833c-3.5474-1.4312-6.5245-2.1467-8.9295-2.1467c-2.4664,0-4.9633,0.5024-7.4907,1.5073
				c-4.9634,1.9488-9.2193,5.8312-12.7662,11.6471c-3.5474,5.8159-5.4125,11.3503-5.5952,16.6029
				c-0.1827,5.2526-0.274,8.3509-0.274,9.2949c0,8.1911,1.3088,14.7378,3.928,19.6403c2.9232,5.481,6.0444,8.8305,9.3634,10.0485
				c3.3185,1.218,6.0443,1.827,8.1758,1.827c2.5273,0,5.0998-0.5481,7.7191-1.6443c4.7801-2.0097,8.9365-5.7855,12.4693-11.3274
				c3.5322-5.5419,5.6936-12.789,6.4858-21.7413c0.0914-1.6747,0.137-3.2734,0.137-4.7959c0-7.3689-1.1876-13.4284-3.5627-18.1786
				C736.9965,451.842,733.7764,448.2641,730.2295,446.833z M738.7935,480.1757c-0.8221,9.135-2.809,16.0015-5.9606,20.5995
				c-3.1516,4.5979-5.6942,6.9197-7.6277,6.9654c-1.9341,0.0457-2.9308,0.0685-2.9917,0.0685c-3.7155,0-6.8817-2.1315-9.5004-6.3945
				c-2.4969-3.989-3.7453-9.6374-3.7453-16.9454c0-9.1046,1.2484-16.2755,3.7453-21.5129c2.2224-4.7502,4.5447-7.7876,6.9655-9.1122
				s4.4686-1.9869,6.1433-1.9869c1.3398,0,2.6791,0.3045,4.0194,0.9135c2.9531,1.4007,5.214,4.126,6.7827,8.1758
				c1.5682,4.0498,2.3523,8.8305,2.3523,14.3419C738.9763,476.8415,738.9148,478.4705,738.7935,480.1757z"/>
			<path d="M790.3607,446.2392c-0.5786,0-1.081,0.1979-1.5073,0.5938c-1.0353,1.4007-1.8727,5.2298-2.5121,11.4872
				c-0.6395,6.2575-1.112,12.8804-1.416,19.8687c-0.3045,6.9883-0.5182,12.2942-0.6395,15.9177c0,0.8831-0.0157,1.553-0.0457,2.0097
				c-5.3896-14.8596-11.0533-28.7144-16.9911-41.5643c-2.3142-5.0851-3.791-7.9627-4.4305-8.6326
				c-0.4269-0.3958-0.8679-0.5938-1.3246-0.5938c-0.6395-0.0609-1.249-0.0913-1.827-0.0913c-1.9488,0-3.4256,0.3654-4.4304,1.0962
				c-2.0712,1.4921-3.106,3.9737-3.106,7.445l-0.0913,1.0505c-1.4921,14.2202-2.2381,27.9226-2.2381,41.1075
				c0,9.3786,0.4263,14.6465,1.2789,15.8035c0.4866,0.4263,0.9891,0.6394,1.5073,0.6394c1.3702,0,2.1467-0.8221,2.3294-2.4664
				c-0.2131-1.2789-0.3197-7.0187-0.3197-17.2195c0-8.5869,0.4567-19.5793,1.3702-32.9774
				c4.5974,11.571,8.5565,21.7261,11.8755,30.4652c2.5273,6.6077,5.3135,13.7786,8.3585,21.5129
				c0.335,0.9744,1.1419,1.492,2.4208,1.5529h0.5481c2.5877,0,4.7654-0.609,6.5316-1.827c0.8221-0.5481,1.423-1.0734,1.8041-1.5758
				c0.3807-0.5024,0.6318-1.2028,0.7537-2.101c0.1213-0.8983,0.2436-2.5654,0.3654-5.0014
				c0.4567-8.1302,0.7308-14.4485,0.8221-18.9551c0.0609-4.3239,0.2582-8.9675,0.5938-13.9309
				c0.335-4.9633,1.0657-11.8451,2.1924-20.6451l0.0457-0.5481c0-0.7308-0.1827-1.3094-0.5481-1.7357
				C791.3655,446.498,790.9088,446.2697,790.3607,446.2392z"/>
			<path d="M837.9083,445.8738c-0.2131-0.1522-1.1266-0.2284-2.7405-0.2284c-1.827,0.0305-3.7155,0.0457-5.6638,0.0457h-7.2166
				c-7.7952-0.0609-12.9108-0.1218-15.3468-0.1827c-0.8221,0-1.5377,0.0761-2.1467,0.2284
				c-0.8836,0.2436-1.5834,0.9211-2.1011,2.0326c-0.5182,1.1114-0.9135,2.9612-1.1876,5.5495
				c-1.0048,11.2665-1.5073,21.8174-1.5073,31.6528c0,15.8949,0.441,25.0451,1.3246,27.4507
				c0.304,0.8831,0.7379,1.4083,1.3018,1.5758c0.5633,0.1674,1.5143,0.2512,2.8547,0.2512
				c6.9426,0.1523,11.571,0.2284,13.8852,0.2284c2.2838,0,6.9122-0.137,13.8852-0.4111c1.6743-0.0609,2.6644-0.1522,2.9689-0.274
				c0.6395-0.4263,0.9592-1.0657,0.9592-1.9183c0-1.4616-0.7009-2.1924-2.1011-2.1924l-11.5558,0.0913
				c-2.7405,0-4.8573-0.0152-6.3488-0.0457c-0.944-0.0305-2.1168-0.0457-3.517-0.0457c-0.3355-5.2679-0.5329-10.4748-0.5938-15.6208
				c1.8879,0,4.5675-0.0533,8.0388-0.1599c3.4713-0.1066,5.2526-0.1751,5.344-0.2055c0.7003-0.2436,1.0505-0.9439,1.0505-2.101
				c0-1.3094-0.5024-2.0249-1.5073-2.1467h-1.2332c-4.0194-0.0913-7.9474-0.137-11.7841-0.137
				c0-17.2956,0.304-30.1607,0.9135-38.5954c0-0.2131,0.2284-0.3197,0.6851-0.3197h1.2333c0.609,0.0304,1.9482,0.0457,4.0194,0.0457
				c3.4099,0,9.3019-0.1674,17.6762-0.5024c0.9434-0.2436,1.4159-0.9592,1.4159-2.1467
				C838.9131,446.9091,838.5777,446.2697,837.9083,445.8738z"/>
		</g>
	</g>
</g>
</svg>
